<svg xmlns:dc="http://purl.org/dc/elements/1.1/" xmlns:cc="http://creativecommons.org/ns#" xmlns:rdf="http://www.w3.org/1999/02/22-rdf-syntax-ns#" xmlns:svg="http://www.w3.org/2000/svg" xmlns="http://www.w3.org/2000/svg" id="svg8" version="1.1" viewBox="0 0 210 297" height="297mm" width="210mm">
  <defs id="defs2"/>
  <metadata id="metadata5">
    <rdf:RDF>
      <cc:Work rdf:about="">
        <dc:format>image/svg+xml</dc:format>
        <dc:type rdf:resource="http://purl.org/dc/dcmitype/StillImage"/>
        <dc:title/>
      </cc:Work>
    </rdf:RDF>
  </metadata>
  <g id="layer1">
    <path id="dashme" d="M 39.817243,184.34654 145.92741,65.030315" style="fill:none;fill-rule:evenodd;stroke:#000000;stroke-width:0.26499999;stroke-linecap:butt;stroke-linejoin:miter;stroke-opacity:1;stroke-miterlimit:4;stroke-dasharray:2.1199999,0.26499999;stroke-dashoffset:0"/>
   <path id="dashme2" transform="translate(10, 10)" d="M 39.8172 184.347 L 41.1463 182.852 M 43.14 180.61 L 45.7981 177.621 M 47.1272 176.127 L 49.1208 173.885 M 51.779 170.896 L 53.1081 169.402 M 55.1017 167.16 L 57.7599 164.171 M 59.089 162.676 L 61.0826 160.435 M 63.7408 157.446 L 65.0699 155.951 M 67.0635 153.709 L 69.7217 150.72 M 71.0508 149.226 L 73.0444 146.984 M 75.7026 143.995 L 77.0317 142.501 M 79.0253 140.259 L 81.6835 137.27 M 83.0126 135.775 L 85.0062 133.534 M 87.6644 130.545 L 88.9934 129.05 M 90.9871 126.808 L 93.6452 123.819 M 94.9743 122.325 L 96.968 120.083 M 99.6261 117.094 L 100.955 115.6 M 102.949 113.358 L 105.607 110.369 M 106.936 108.874 L 108.93 106.633 M 111.588 103.644 L 112.917 102.149 M 114.911 99.9073 L 117.569 96.9183 M 118.898 95.4238 L 120.892 93.1821 M 123.55 90.1931 L 124.879 88.6986 M 126.872 86.4568 L 129.531 83.4678 M 130.86 81.9733 L 132.853 79.7316 M 135.511 76.7426 L 136.841 75.2481 M 138.834 73.0063 L 141.492 70.0173 M 142.821 68.5228 L 144.815 66.2811 M 145.927 65.0303" style="fill:none;fill-rule:evenodd;stroke:#000000;stroke-width:0.26499999;stroke-linecap:butt;stroke-linejoin:miter;stroke-opacity:1;stroke-miterlimit:4;stroke-dashoffset:0"/>

  </g>
</svg>