999
"DXF R12 Output" (www.mydxf.blogspot.com)
 0 
SECTION
 2 
HEADER
 9 
$ACADVER
 1 
AC1009
 9 
$EXTMIN
 10 
 0 
 20 
 0 
 9 
$EXTMAX
 10 
 8.5 
 20 
 11 
 0 
ENDSEC
 0 
SECTION
 2 
ENTITIES
0
LINE
8
Slide3
10
172.325263
20
170.940036
11
238.124705
21
170.940036
0
LINE
8
Slide3
10
238.124705
20
170.940036
11
238.124705
21
117.627061
0
LINE
8
Slide3
10
238.124705
20
117.627061
11
172.325263
21
117.627061
0
LINE
8
Slide3
10
172.325263
20
117.627061
11
172.325263
21
170.940036
0
LINE
8
Slide2
10
39.687450
20
158.749800
11
37.710031
21
158.601649
0
LINE
8
Slide2
10
37.710031
20
158.601649
11
35.808364
21
158.168938
0
LINE
8
Slide2
10
35.808364
20
158.168938
11
34.008810
21
157.469279
0
LINE
8
Slide2
10
34.008810
20
157.469279
11
32.337728
21
156.520286
0
LINE
8
Slide2
10
32.337728
20
156.520286
11
30.821477
21
155.339572
0
LINE
8
Slide2
10
30.821477
20
155.339572
11
29.486418
21
153.944748
0
LINE
8
Slide2
10
29.486418
20
153.944748
11
28.358908
21
152.353429
0
LINE
8
Slide2
10
28.358908
20
152.353429
11
27.465309
21
150.583227
0
LINE
8
Slide2
10
27.465309
20
150.583227
11
26.845457
21
148.699634
0
LINE
8
Slide2
10
26.845457
20
148.699634
11
26.517494
21
146.777132
0
LINE
8
Slide2
10
26.517494
20
146.777132
11
26.475235
21
144.846813
0
LINE
8
Slide2
10
26.475235
20
144.846813
11
26.712494
21
142.939771
0
LINE
8
Slide2
10
26.712494
20
142.939771
11
27.223088
21
141.087098
0
LINE
8
Slide2
10
27.223088
20
141.087098
11
28.000832
21
139.319888
0
LINE
8
Slide2
10
28.000832
20
139.319888
11
29.039540
21
137.669234
0
LINE
8
Slide2
10
29.039540
20
137.669234
11
30.333028
21
136.166228
0
LINE
8
Slide2
10
30.333028
20
136.166228
11
31.836034
21
134.872740
0
LINE
8
Slide2
10
31.836034
20
134.872740
11
33.486688
21
133.834032
0
LINE
8
Slide2
10
33.486688
20
133.834032
11
35.253898
21
133.056288
0
LINE
8
Slide2
10
35.253898
20
133.056288
11
37.106571
21
132.545694
0
LINE
8
Slide2
10
37.106571
20
132.545694
11
39.013613
21
132.308435
0
LINE
8
Slide2
10
39.013613
20
132.308435
11
40.943932
21
132.350694
0
LINE
8
Slide2
10
40.943932
20
132.350694
11
42.866434
21
132.678657
0
LINE
8
Slide2
10
42.866434
20
132.678657
11
44.750027
21
133.298509
0
LINE
8
Slide2
10
44.750027
20
133.298509
11
46.520229
21
134.192108
0
LINE
8
Slide2
10
46.520229
20
134.192108
11
48.111548
21
135.319618
0
LINE
8
Slide2
10
48.111548
20
135.319618
11
49.506372
21
136.654677
0
LINE
8
Slide2
10
49.506372
20
136.654677
11
50.687086
21
138.170928
0
LINE
8
Slide2
10
50.687086
20
138.170928
11
51.636079
21
139.842010
0
LINE
8
Slide2
10
51.636079
20
139.842010
11
52.335738
21
141.641564
0
LINE
8
Slide2
10
52.335738
20
141.641564
11
52.768449
21
143.543231
0
LINE
8
Slide2
10
52.768449
20
143.543231
11
52.916600
21
145.520650
0
LINE
8
Slide2
10
52.916600
20
145.520650
11
52.660057
21
148.113581
0
LINE
8
Slide2
10
52.660057
20
148.113581
11
51.909591
21
150.583227
0
LINE
8
Slide2
10
51.909591
20
150.583227
11
50.693947
21
152.860189
0
LINE
8
Slide2
10
50.693947
20
152.860189
11
49.041872
21
154.875072
0
LINE
8
Slide2
10
49.041872
20
154.875072
11
47.026989
21
156.527147
0
LINE
8
Slide2
10
47.026989
20
156.527147
11
44.750027
21
157.742791
0
LINE
8
Slide2
10
44.750027
20
157.742791
11
42.280381
21
158.493257
0
LINE
8
Slide2
10
42.280381
20
158.493257
11
39.687450
21
158.749800
0
LINE
8
Slide2
10
39.687450
20
158.749800
11
39.687450
21
158.749800
0
LINE
8
Slide2
10
105.833200
20
158.749800
11
101.878361
21
158.601649
0
LINE
8
Slide2
10
101.878361
20
158.601649
11
98.075028
21
158.168938
0
LINE
8
Slide2
10
98.075028
20
158.168938
11
94.475920
21
157.469279
0
LINE
8
Slide2
10
94.475920
20
157.469279
11
91.133756
21
156.520286
0
LINE
8
Slide2
10
91.133756
20
156.520286
11
88.101255
21
155.339572
0
LINE
8
Slide2
10
88.101255
20
155.339572
11
85.431135
21
153.944748
0
LINE
8
Slide2
10
85.431135
20
153.944748
11
83.176117
21
152.353429
0
LINE
8
Slide2
10
83.176117
20
152.353429
11
81.388918
21
150.583227
0
LINE
8
Slide2
10
81.388918
20
150.583227
11
80.149214
21
148.699634
0
LINE
8
Slide2
10
80.149214
20
148.699634
11
79.493288
21
146.777132
0
LINE
8
Slide2
10
79.493288
20
146.777132
11
79.408769
21
144.846813
0
LINE
8
Slide2
10
79.408769
20
144.846813
11
79.883289
21
142.939771
0
LINE
8
Slide2
10
79.883289
20
142.939771
11
80.904477
21
141.087098
0
LINE
8
Slide2
10
80.904477
20
141.087098
11
82.459964
21
139.319888
0
LINE
8
Slide2
10
82.459964
20
139.319888
11
84.537381
21
137.669234
0
LINE
8
Slide2
10
84.537381
20
137.669234
11
87.124357
21
136.166228
0
LINE
8
Slide2
10
87.124357
20
136.166228
11
90.130367
21
134.872740
0
LINE
8
Slide2
10
90.130367
20
134.872740
11
93.431676
21
133.834032
0
LINE
8
Slide2
10
93.431676
20
133.834032
11
96.966096
21
133.056288
0
LINE
8
Slide2
10
96.966096
20
133.056288
11
100.671442
21
132.545694
0
LINE
8
Slide2
10
100.671442
20
132.545694
11
104.485527
21
132.308435
0
LINE
8
Slide2
10
104.485527
20
132.308435
11
108.346164
21
132.350694
0
LINE
8
Slide2
10
108.346164
20
132.350694
11
112.191169
21
132.678657
0
LINE
8
Slide2
10
112.191169
20
132.678657
11
115.958353
21
133.298509
0
LINE
8
Slide2
10
115.958353
20
133.298509
11
119.498758
21
134.192108
0
LINE
8
Slide2
10
119.498758
20
134.192108
11
122.681396
21
135.319618
0
LINE
8
Slide2
10
122.681396
20
135.319618
11
125.471043
21
136.654677
0
LINE
8
Slide2
10
125.471043
20
136.654677
11
127.832472
21
138.170928
0
LINE
8
Slide2
10
127.832472
20
138.170928
11
129.730458
21
139.842010
0
LINE
8
Slide2
10
129.730458
20
139.842010
11
131.129776
21
141.641564
0
LINE
8
Slide2
10
131.129776
20
141.641564
11
131.995198
21
143.543231
0
LINE
8
Slide2
10
131.995198
20
143.543231
11
132.291500
21
145.520650
0
LINE
8
Slide2
10
132.291500
20
145.520650
11
132.162031
21
146.828189
0
LINE
8
Slide2
10
132.162031
20
146.828189
11
131.778414
21
148.113581
0
LINE
8
Slide2
10
131.778414
20
148.113581
11
131.147835
21
149.368152
0
LINE
8
Slide2
10
131.147835
20
149.368152
11
130.277482
21
150.583227
0
LINE
8
Slide2
10
130.277482
20
150.583227
11
129.174540
21
151.750130
0
LINE
8
Slide2
10
129.174540
20
151.750130
11
127.846195
21
152.860189
0
LINE
8
Slide2
10
127.846195
20
152.860189
11
126.299634
21
153.904728
0
LINE
8
Slide2
10
126.299634
20
153.904728
11
124.542043
21
154.875072
0
LINE
8
Slide2
10
124.542043
20
154.875072
11
122.601355
21
155.753867
0
LINE
8
Slide2
10
122.601355
20
155.753867
11
120.512278
21
156.527147
0
LINE
8
Slide2
10
120.512278
20
156.527147
11
115.958353
21
157.742791
0
LINE
8
Slide2
10
115.958353
20
157.742791
11
111.019062
21
158.493257
0
LINE
8
Slide2
10
111.019062
20
158.493257
11
105.833200
21
158.749800
0
LINE
8
Slide2
10
105.833200
20
158.749800
11
105.833200
21
158.749800
0
LINE
8
Slide2
10
207.191336
20
138.158943
11
204.538920
21
136.486876
0
LINE
8
Slide2
10
204.538920
20
136.486876
11
201.447085
21
135.075132
0
LINE
8
Slide2
10
201.447085
20
135.075132
11
197.989549
21
133.937099
0
LINE
8
Slide2
10
197.989549
20
133.937099
11
194.240034
21
133.086164
0
LINE
8
Slide2
10
194.240034
20
133.086164
11
190.272258
21
132.535713
0
LINE
8
Slide2
10
190.272258
20
132.535713
11
186.159941
21
132.299133
0
LINE
8
Slide2
10
186.159941
20
132.299133
11
181.976804
21
132.389811
0
LINE
8
Slide2
10
181.976804
20
132.389811
11
177.796567
21
132.821134
0
LINE
8
Slide2
10
177.796567
20
132.821134
11
173.808416
21
133.581594
0
LINE
8
Slide2
10
173.808416
20
133.581594
11
170.184228
21
134.630020
0
LINE
8
Slide2
10
170.184228
20
134.630020
11
166.971753
21
135.935300
0
LINE
8
Slide2
10
166.971753
20
135.935300
11
164.218743
21
137.466326
0
LINE
8
Slide2
10
164.218743
20
137.466326
11
161.972949
21
139.191988
0
LINE
8
Slide2
10
161.972949
20
139.191988
11
160.282123
21
141.081177
0
LINE
8
Slide2
10
160.282123
20
141.081177
11
159.659745
21
142.077371
0
LINE
8
Slide2
10
159.659745
20
142.077371
11
159.194015
21
143.102781
0
LINE
8
Slide2
10
159.194015
20
143.102781
11
158.890903
21
144.153518
0
LINE
8
Slide2
10
158.890903
20
144.153518
11
158.756378
21
145.225693
0
LINE
8
Slide2
10
158.756378
20
145.225693
11
158.795172
21
146.299800
0
LINE
8
Slide2
10
158.795172
20
146.299800
11
159.004297
21
147.356249
0
LINE
8
Slide2
10
159.004297
20
147.356249
11
159.378136
21
148.391021
0
LINE
8
Slide2
10
159.378136
20
148.391021
11
159.911073
21
149.400099
0
LINE
8
Slide2
10
159.911073
20
149.400099
11
161.431776
21
151.325098
0
LINE
8
Slide2
10
161.431776
20
151.325098
11
163.521475
21
153.099105
0
LINE
8
Slide2
10
163.521475
20
153.099105
11
166.135239
21
154.689975
0
LINE
8
Slide2
10
166.135239
20
154.689975
11
169.228140
21
156.065565
0
LINE
8
Slide2
10
169.228140
20
156.065565
11
172.755246
21
157.193733
0
LINE
8
Slide2
10
172.755246
20
157.193733
11
176.671628
21
158.042334
0
LINE
8
Slide2
10
176.671628
20
158.042334
11
180.809252
21
158.566407
0
LINE
8
Slide2
10
180.809252
20
158.566407
11
184.980145
21
158.750239
0
LINE
8
Slide2
10
184.980145
20
158.750239
11
189.109466
21
158.605560
0
LINE
8
Slide2
10
189.109466
20
158.605560
11
193.122376
21
158.144099
0
LINE
8
Slide2
10
193.122376
20
158.144099
11
196.944035
21
157.377588
0
LINE
8
Slide2
10
196.944035
20
157.377588
11
200.499601
21
156.317757
0
LINE
8
Slide2
10
200.499601
20
156.317757
11
203.714236
21
154.976336
0
LINE
8
Slide2
10
203.714236
20
154.976336
11
206.513098
21
153.365054
0
LINE
8
Slide2
10
206.513098
20
153.365054
11
185.208100
21
145.520650
0
LINE
8
Slide2
10
185.208100
20
145.520650
11
207.191336
21
138.158943
0
LINE
8
Slide2
10
26.458300
20
105.833200
11
52.916600
21
79.374900
0
LINE
8
Slide2
10
52.916600
20
79.374900
11
79.374900
21
105.833200
0
LINE
8
Slide2
10
79.374900
20
105.833200
11
105.833200
21
79.374900
0
LINE
8
Slide2
10
132.291500
20
105.833200
11
132.343176
21
104.696320
0
LINE
8
Slide2
10
132.343176
20
104.696320
11
132.704911
21
101.699091
0
LINE
8
Slide2
10
132.704911
20
101.699091
11
133.098943
21
99.696631
0
LINE
8
Slide2
10
133.098943
20
99.696631
11
133.686762
21
97.461629
0
LINE
8
Slide2
10
133.686762
20
97.461629
11
134.507124
21
95.071597
0
LINE
8
Slide2
10
134.507124
20
95.071597
11
135.598788
21
92.604050
0
LINE
8
Slide2
10
135.598788
20
92.604050
11
137.000509
21
90.136503
0
LINE
8
Slide2
10
137.000509
20
90.136503
11
138.751046
21
87.746471
0
LINE
8
Slide2
10
138.751046
20
87.746471
11
140.889156
21
85.511469
0
LINE
8
Slide2
10
140.889156
20
85.511469
11
143.453595
21
83.509009
0
LINE
8
Slide2
10
143.453595
20
83.509009
11
146.483122
21
81.816608
0
LINE
8
Slide2
10
146.483122
20
81.816608
11
150.016494
21
80.511780
0
LINE
8
Slide2
10
150.016494
20
80.511780
11
151.984233
21
80.028929
0
LINE
8
Slide2
10
151.984233
20
80.028929
11
154.092467
21
79.672039
0
LINE
8
Slide2
10
154.092467
20
79.672039
11
156.346041
21
79.450800
0
LINE
8
Slide2
10
156.346041
20
79.450800
11
158.749800
21
79.374900
0
LINE
8
Slide2
10
158.749800
20
79.374900
11
161.078466
21
79.450800
0
LINE
8
Slide2
10
161.078466
20
79.450800
11
163.116453
21
79.672039
0
LINE
8
Slide2
10
163.116453
20
79.672039
11
164.883139
21
80.028929
0
LINE
8
Slide2
10
164.883139
20
80.028929
11
166.397902
21
80.511780
0
LINE
8
Slide2
10
166.397902
20
80.511780
11
167.680122
21
81.110903
0
LINE
8
Slide2
10
167.680122
20
81.110903
11
168.749177
21
81.816608
0
LINE
8
Slide2
10
168.749177
20
81.816608
11
169.624446
21
82.619207
0
LINE
8
Slide2
10
169.624446
20
82.619207
11
170.325306
21
83.509009
0
LINE
8
Slide2
10
170.325306
20
83.509009
11
170.871138
21
84.476326
0
LINE
8
Slide2
10
170.871138
20
84.476326
11
171.281319
21
85.511469
0
LINE
8
Slide2
10
171.281319
20
85.511469
11
171.772245
21
87.746471
0
LINE
8
Slide2
10
171.772245
20
87.746471
11
171.953112
21
90.136503
0
LINE
8
Slide2
10
171.953112
20
90.136503
11
171.978950
21
92.604050
0
LINE
8
Slide2
10
171.978950
20
92.604050
11
172.004788
21
95.071597
0
LINE
8
Slide2
10
172.004788
20
95.071597
11
172.185655
21
97.461629
0
LINE
8
Slide2
10
172.185655
20
97.461629
11
172.676581
21
99.696631
0
LINE
8
Slide2
10
172.676581
20
99.696631
11
173.086762
21
100.731774
0
LINE
8
Slide2
10
173.086762
20
100.731774
11
173.632594
21
101.699091
0
LINE
8
Slide2
10
173.632594
20
101.699091
11
174.333454
21
102.588893
0
LINE
8
Slide2
10
174.333454
20
102.588893
11
175.208723
21
103.391492
0
LINE
8
Slide2
10
175.208723
20
103.391492
11
176.277778
21
104.097197
0
LINE
8
Slide2
10
176.277778
20
104.097197
11
177.559998
21
104.696320
0
LINE
8
Slide2
10
177.559998
20
104.696320
11
179.074761
21
105.179171
0
LINE
8
Slide2
10
179.074761
20
105.179171
11
180.841447
21
105.536061
0
LINE
8
Slide2
10
180.841447
20
105.536061
11
182.879434
21
105.757300
0
LINE
8
Slide2
10
182.879434
20
105.757300
11
185.208100
21
105.833200
0
LINE
8
Slide2
10
185.208100
20
105.833200
11
187.611859
21
105.757300
0
LINE
8
Slide2
10
187.611859
20
105.757300
11
189.865433
21
105.536061
0
LINE
8
Slide2
10
189.865433
20
105.536061
11
191.973667
21
105.179171
0
LINE
8
Slide2
10
191.973667
20
105.179171
11
193.941406
21
104.696320
0
LINE
8
Slide2
10
193.941406
20
104.696320
11
197.474778
21
103.391492
0
LINE
8
Slide2
10
197.474778
20
103.391492
11
200.504305
21
101.699091
0
LINE
8
Slide2
10
200.504305
20
101.699091
11
203.068744
21
99.696631
0
LINE
8
Slide2
10
203.068744
20
99.696631
11
205.206854
21
97.461629
0
LINE
8
Slide2
10
205.206854
20
97.461629
11
206.957391
21
95.071597
0
LINE
8
Slide2
10
206.957391
20
95.071597
11
208.359113
21
92.604050
0
LINE
8
Slide2
10
208.359113
20
92.604050
11
209.450776
21
90.136503
0
LINE
8
Slide2
10
209.450776
20
90.136503
11
210.271138
21
87.746471
0
LINE
8
Slide2
10
210.271138
20
87.746471
11
210.858957
21
85.511469
0
LINE
8
Slide2
10
210.858957
20
85.511469
11
211.252989
21
83.509009
0
LINE
8
Slide2
10
211.252989
20
83.509009
11
211.614724
21
80.511780
0
LINE
8
Slide2
10
211.614724
20
80.511780
11
211.666400
21
79.374900
0
LINE
8
Slide2
10
64.778703
20
29.331658
11
52.782808
21
31.483898
0
LINE
8
Slide2
10
52.782808
20
31.483898
11
44.209187
21
22.822104
0
LINE
8
Slide2
10
44.209187
20
22.822104
11
42.549153
21
34.895958
0
LINE
8
Slide2
10
42.549153
20
34.895958
11
31.661901
21
40.373313
0
LINE
8
Slide2
10
31.661901
20
40.373313
11
42.631841
21
45.683126
0
LINE
8
Slide2
10
42.631841
20
45.683126
11
44.476770
21
57.730111
0
LINE
8
Slide2
10
44.476770
20
57.730111
11
52.916600
21
48.937901
0
LINE
8
Slide2
10
52.916600
20
48.937901
11
64.944078
21
50.905994
0
LINE
8
Slide2
10
64.944078
20
50.905994
11
59.190241
21
40.162297
0
LINE
8
Slide2
10
59.190241
20
40.162297
11
64.778703
21
29.331658
0
LINE
8
Slide2
10
117.695300
20
28.538912
11
105.699403
21
30.691149
0
LINE
8
Slide2
10
105.699403
20
30.691149
11
97.125784
21
22.029355
0
LINE
8
Slide2
10
97.125784
20
22.029355
11
95.465748
21
34.103209
0
LINE
8
Slide2
10
95.465748
20
34.103209
11
84.578499
21
39.580564
0
LINE
8
Slide2
10
84.578499
20
39.580564
11
95.548438
21
44.890377
0
LINE
8
Slide2
10
95.548438
20
44.890377
11
97.393365
21
56.937362
0
LINE
8
Slide2
10
97.393365
20
56.937362
11
105.833195
21
48.145155
0
LINE
8
Slide2
10
105.833195
20
48.145155
11
117.860675
21
50.113245
0
LINE
8
Slide2
10
117.860675
20
50.113245
11
112.106836
21
39.369548
0
LINE
8
Slide2
10
112.106836
20
39.369548
11
117.695300
21
28.538912
0
LINE
8
#text12
10
26.839157
20
240.953643
11
27.221905
21
240.953643
0
LINE
8
#text12
10
27.221905
20
240.953643
11
27.221905
21
239.794023
0
LINE
8
#text12
10
27.221905
20
239.794023
11
28.612694
21
239.794023
0
LINE
8
#text12
10
28.612694
20
239.794023
11
28.612694
21
240.953643
0
LINE
8
#text12
10
28.612694
20
240.953643
11
28.995442
21
240.953643
0
LINE
8
#text12
10
28.995442
20
240.953643
11
28.995442
21
238.124700
0
LINE
8
#text12
10
28.995442
20
238.124700
11
28.612694
21
238.124700
0
LINE
8
#text12
10
28.612694
20
238.124700
11
28.612694
21
239.471906
0
LINE
8
#text12
10
28.612694
20
239.471906
11
27.221905
21
239.471906
0
LINE
8
#text12
10
27.221905
20
239.471906
11
27.221905
21
238.124700
0
LINE
8
#text12
10
27.221905
20
238.124700
11
26.839157
21
238.124700
0
LINE
8
#text12
10
26.839157
20
238.124700
11
26.839157
21
240.953643
0
LINE
8
#text12
10
31.557219
20
239.272952
11
31.557219
21
239.102419
0
LINE
8
#text12
10
31.557219
20
239.102419
11
29.954214
21
239.102419
0
LINE
8
#text12
10
29.954214
20
239.102419
11
30.170222
21
238.552926
0
LINE
8
#text12
10
30.170222
20
238.552926
11
30.712136
21
238.365340
0
LINE
8
#text12
10
30.712136
20
238.365340
11
31.100570
21
238.414605
0
LINE
8
#text12
10
31.100570
20
238.414605
11
31.475744
21
238.562400
0
LINE
8
#text12
10
31.475744
20
238.562400
11
31.475744
21
238.232704
0
LINE
8
#text12
10
31.475744
20
238.232704
11
31.091098
21
238.111436
0
LINE
8
#text12
10
31.091098
20
238.111436
11
30.691292
21
238.069751
0
LINE
8
#text12
10
30.691292
20
238.069751
11
30.236066
21
238.143649
0
LINE
8
#text12
10
30.236066
20
238.143649
11
29.886002
21
238.365340
0
LINE
8
#text12
10
29.886002
20
238.365340
11
29.664310
21
238.713037
0
LINE
8
#text12
10
29.664310
20
238.713037
11
29.590412
21
239.164948
0
LINE
8
#text12
10
29.590412
20
239.164948
11
29.660520
21
239.632017
0
LINE
8
#text12
10
29.660520
20
239.632017
11
29.870844
21
239.991083
0
LINE
8
#text12
10
29.870844
20
239.991083
11
30.201961
21
240.221301
0
LINE
8
#text12
10
30.201961
20
240.221301
11
30.630660
21
240.298041
0
LINE
8
#text12
10
30.630660
20
240.298041
11
31.013883
21
240.228880
0
LINE
8
#text12
10
31.013883
20
240.228880
11
31.307104
21
240.021399
0
LINE
8
#text12
10
31.307104
20
240.021399
11
31.494690
21
239.696914
0
LINE
8
#text12
10
31.494690
20
239.696914
11
31.557219
21
239.272952
0
LINE
8
#text12
10
31.557219
20
239.272952
11
31.557219
21
239.272952
0
LINE
8
#text12
10
31.208576
20
239.375271
11
31.047516
21
239.831919
0
LINE
8
#text12
10
31.047516
20
239.831919
11
30.634449
21
240.002451
0
LINE
8
#text12
10
30.634449
20
240.002451
11
30.166433
21
239.837603
0
LINE
8
#text12
10
30.166433
20
239.837603
11
29.965583
21
239.373376
0
LINE
8
#text12
10
29.965583
20
239.373376
11
31.208576
21
239.375271
0
LINE
8
#text12
10
32.129449
20
241.073016
11
32.478095
21
241.073016
0
LINE
8
#text12
10
32.478095
20
241.073016
11
32.478095
21
238.124700
0
LINE
8
#text12
10
32.478095
20
238.124700
11
32.129449
21
238.124700
0
LINE
8
#text12
10
32.129449
20
238.124700
11
32.129449
21
241.073016
0
LINE
8
#text12
10
33.207593
20
241.073016
11
33.556236
21
241.073016
0
LINE
8
#text12
10
33.556236
20
241.073016
11
33.556236
21
238.124700
0
LINE
8
#text12
10
33.556236
20
238.124700
11
33.207593
21
238.124700
0
LINE
8
#text12
10
33.207593
20
238.124700
11
33.207593
21
241.073016
0
LINE
8
#text12
10
35.108082
20
240.002451
11
34.664699
21
239.782654
0
LINE
8
#text12
10
34.664699
20
239.782654
11
34.501745
21
239.183896
0
LINE
8
#text12
10
34.501745
20
239.183896
11
34.662805
21
238.583243
0
LINE
8
#text12
10
34.662805
20
238.583243
11
35.108082
21
238.365340
0
LINE
8
#text12
10
35.108082
20
238.365340
11
35.549573
21
238.585137
0
LINE
8
#text12
10
35.549573
20
238.585137
11
35.712524
21
239.183896
0
LINE
8
#text12
10
35.712524
20
239.183896
11
35.549573
21
239.780759
0
LINE
8
#text12
10
35.549573
20
239.780759
11
35.108082
21
240.002451
0
LINE
8
#text12
10
35.108082
20
240.002451
11
35.108082
21
240.002451
0
LINE
8
#text12
10
35.108082
20
240.298041
11
35.514045
21
240.224143
0
LINE
8
#text12
10
35.514045
20
240.224143
11
35.822424
21
240.002451
0
LINE
8
#text12
10
35.822424
20
240.002451
11
36.017115
21
239.650018
0
LINE
8
#text12
10
36.017115
20
239.650018
11
36.082012
21
239.183896
0
LINE
8
#text12
10
36.082012
20
239.183896
11
36.017115
21
238.718721
0
LINE
8
#text12
10
36.017115
20
238.718721
11
35.822424
21
238.365340
0
LINE
8
#text12
10
35.822424
20
238.365340
11
35.514045
21
238.143649
0
LINE
8
#text12
10
35.514045
20
238.143649
11
35.108082
21
238.069751
0
LINE
8
#text12
10
35.108082
20
238.069751
11
34.700700
21
238.143649
0
LINE
8
#text12
10
34.700700
20
238.143649
11
34.391848
21
238.365340
0
LINE
8
#text12
10
34.391848
20
238.365340
11
34.198578
21
238.718721
0
LINE
8
#text12
10
34.198578
20
238.718721
11
34.134154
21
239.183896
0
LINE
8
#text12
10
34.134154
20
239.183896
11
34.198578
21
239.650018
0
LINE
8
#text12
10
34.198578
20
239.650018
11
34.391848
21
240.002451
0
LINE
8
#text12
10
34.391848
20
240.002451
11
34.700700
21
240.224143
0
LINE
8
#text12
10
34.700700
20
240.224143
11
35.108082
21
240.298041
0
LINE
8
#text12
10
35.108082
20
240.298041
11
35.108082
21
240.298041
0
LINE
8
#text12
10
37.656593
20
240.953643
11
38.043133
21
240.953643
0
LINE
8
#text12
10
38.043133
20
240.953643
11
38.638103
21
238.562400
0
LINE
8
#text12
10
38.638103
20
238.562400
11
39.231177
21
240.953643
0
LINE
8
#text12
10
39.231177
20
240.953643
11
39.661296
21
240.953643
0
LINE
8
#text12
10
39.661296
20
240.953643
11
40.256266
21
238.562400
0
LINE
8
#text12
10
40.256266
20
238.562400
11
40.849340
21
240.953643
0
LINE
8
#text12
10
40.849340
20
240.953643
11
41.237774
21
240.953643
0
LINE
8
#text12
10
41.237774
20
240.953643
11
40.527223
21
238.124700
0
LINE
8
#text12
10
40.527223
20
238.124700
11
40.045941
21
238.124700
0
LINE
8
#text12
10
40.045941
20
238.124700
11
39.449079
21
240.580367
0
LINE
8
#text12
10
39.449079
20
240.580367
11
38.846531
21
238.124700
0
LINE
8
#text12
10
38.846531
20
238.124700
11
38.365252
21
238.124700
0
LINE
8
#text12
10
38.365252
20
238.124700
11
37.656593
21
240.953643
0
LINE
8
#text12
10
42.325393
20
240.002451
11
41.882010
21
239.782654
0
LINE
8
#text12
10
41.882010
20
239.782654
11
41.719056
21
239.183896
0
LINE
8
#text12
10
41.719056
20
239.183896
11
41.880113
21
238.583243
0
LINE
8
#text12
10
41.880113
20
238.583243
11
42.325393
21
238.365340
0
LINE
8
#text12
10
42.325393
20
238.365340
11
42.766881
21
238.585137
0
LINE
8
#text12
10
42.766881
20
238.585137
11
42.929835
21
239.183896
0
LINE
8
#text12
10
42.929835
20
239.183896
11
42.766881
21
239.780759
0
LINE
8
#text12
10
42.766881
20
239.780759
11
42.325393
21
240.002451
0
LINE
8
#text12
10
42.325393
20
240.002451
11
42.325393
21
240.002451
0
LINE
8
#text12
10
42.325393
20
240.298041
11
42.731354
21
240.224143
0
LINE
8
#text12
10
42.731354
20
240.224143
11
43.039735
21
240.002451
0
LINE
8
#text12
10
43.039735
20
240.002451
11
43.234426
21
239.650018
0
LINE
8
#text12
10
43.234426
20
239.650018
11
43.299323
21
239.183896
0
LINE
8
#text12
10
43.299323
20
239.183896
11
43.234426
21
238.718721
0
LINE
8
#text12
10
43.234426
20
238.718721
11
43.039735
21
238.365340
0
LINE
8
#text12
10
43.039735
20
238.365340
11
42.731354
21
238.143649
0
LINE
8
#text12
10
42.731354
20
238.143649
11
42.325393
21
238.069751
0
LINE
8
#text12
10
42.325393
20
238.069751
11
41.918010
21
238.143649
0
LINE
8
#text12
10
41.918010
20
238.143649
11
41.609156
21
238.365340
0
LINE
8
#text12
10
41.609156
20
238.365340
11
41.415886
21
238.718721
0
LINE
8
#text12
10
41.415886
20
238.718721
11
41.351463
21
239.183896
0
LINE
8
#text12
10
41.351463
20
239.183896
11
41.415886
21
239.650018
0
LINE
8
#text12
10
41.415886
20
239.650018
11
41.609156
21
240.002451
0
LINE
8
#text12
10
41.609156
20
240.002451
11
41.918010
21
240.224143
0
LINE
8
#text12
10
41.918010
20
240.224143
11
42.325393
21
240.298041
0
LINE
8
#text12
10
42.325393
20
240.298041
11
42.325393
21
240.298041
0
LINE
8
#text12
10
45.106964
20
239.920975
11
44.978118
21
239.970239
0
LINE
8
#text12
10
44.978118
20
239.970239
11
44.826533
21
239.987292
0
LINE
8
#text12
10
44.826533
20
239.987292
11
44.371781
21
239.794022
0
LINE
8
#text12
10
44.371781
20
239.794022
11
44.214513
21
239.242634
0
LINE
8
#text12
10
44.214513
20
239.242634
11
44.214513
21
238.124700
0
LINE
8
#text12
10
44.214513
20
238.124700
11
43.863972
21
238.124700
0
LINE
8
#text12
10
43.863972
20
238.124700
11
43.863972
21
240.246881
0
LINE
8
#text12
10
43.863972
20
240.246881
11
44.214513
21
240.246881
0
LINE
8
#text12
10
44.214513
20
240.246881
11
44.214513
21
239.917185
0
LINE
8
#text12
10
44.214513
20
239.917185
11
44.500628
21
240.203301
0
LINE
8
#text12
10
44.500628
20
240.203301
11
44.928852
21
240.298041
0
LINE
8
#text12
10
44.928852
20
240.298041
11
45.008436
21
240.292358
0
LINE
8
#text12
10
45.008436
20
240.292358
11
45.105070
21
240.279094
0
LINE
8
#text12
10
45.105070
20
240.279094
11
45.106964
21
239.920975
0
LINE
8
#text12
10
45.472663
20
241.073016
11
45.821307
21
241.073016
0
LINE
8
#text12
10
45.821307
20
241.073016
11
45.821307
21
238.124700
0
LINE
8
#text12
10
45.821307
20
238.124700
11
45.472663
21
238.124700
0
LINE
8
#text12
10
45.472663
20
238.124700
11
45.472663
21
241.073016
0
LINE
8
#text12
10
47.947276
20
239.924764
11
47.947276
21
241.073016
0
LINE
8
#text12
10
47.947276
20
241.073016
11
48.295922
21
241.073016
0
LINE
8
#text12
10
48.295922
20
241.073016
11
48.295922
21
238.124700
0
LINE
8
#text12
10
48.295922
20
238.124700
11
47.947276
21
238.124700
0
LINE
8
#text12
10
47.947276
20
238.124700
11
47.947276
21
238.443027
0
LINE
8
#text12
10
47.947276
20
238.443027
11
47.668742
21
238.160701
0
LINE
8
#text12
10
47.668742
20
238.160701
11
47.267044
21
238.069751
0
LINE
8
#text12
10
47.267044
20
238.069751
11
46.917926
21
238.146491
0
LINE
8
#text12
10
46.917926
20
238.146491
11
46.639863
21
238.376709
0
LINE
8
#text12
10
46.639863
20
238.376709
11
46.399222
21
239.183896
0
LINE
8
#text12
10
46.399222
20
239.183896
11
46.639863
21
239.991083
0
LINE
8
#text12
10
46.639863
20
239.991083
11
46.917926
21
240.221301
0
LINE
8
#text12
10
46.917926
20
240.221301
11
47.267044
21
240.298041
0
LINE
8
#text12
10
47.267044
20
240.298041
11
47.668742
21
240.205195
0
LINE
8
#text12
10
47.668742
20
240.205195
11
47.947276
21
239.924764
0
LINE
8
#text12
10
47.947276
20
239.924764
11
47.947276
21
239.924764
0
LINE
8
#text12
10
46.759235
20
239.183896
11
46.916503
21
238.579453
0
LINE
8
#text12
10
46.916503
20
238.579453
11
47.352308
21
238.361550
0
LINE
8
#text12
10
47.352308
20
238.361550
11
47.788114
21
238.579453
0
LINE
8
#text12
10
47.788114
20
238.579453
11
47.947276
21
239.183896
0
LINE
8
#text12
10
47.947276
20
239.183896
11
47.788114
21
239.786443
0
LINE
8
#text12
10
47.788114
20
239.786443
11
47.352308
21
240.006241
0
LINE
8
#text12
10
47.352308
20
240.006241
11
46.916503
21
239.786443
0
LINE
8
#text12
10
46.916503
20
239.786443
11
46.759235
21
239.183896
0
LINE
8
#text12
10
46.759235
20
239.183896
11
46.759235
21
239.183896
0
LINE
8
#flowRoot14
10
106.943748
20
241.073638
11
107.913887
21
241.073638
0
LINE
8
#flowRoot14
10
107.913887
20
241.073638
11
107.913887
21
238.125326
0
LINE
8
#flowRoot14
10
107.913887
20
238.125326
11
107.563348
21
238.125326
0
LINE
8
#flowRoot14
10
107.563348
20
238.125326
11
107.563348
21
240.783734
0
LINE
8
#flowRoot14
10
107.563348
20
240.783734
11
106.939958
21
240.783734
0
LINE
8
#flowRoot14
10
106.939958
20
240.783734
11
106.678475
21
240.707941
0
LINE
8
#flowRoot14
10
106.678475
20
240.707941
11
106.606473
21
240.435090
0
LINE
8
#flowRoot14
10
106.606473
20
240.435090
11
106.606473
21
240.247505
0
LINE
8
#flowRoot14
10
106.606473
20
240.247505
11
107.180598
21
240.247505
0
LINE
8
#flowRoot14
10
107.180598
20
240.247505
11
107.180598
21
239.976548
0
LINE
8
#flowRoot14
10
107.180598
20
239.976548
11
106.606473
21
239.976548
0
LINE
8
#flowRoot14
10
106.606473
20
239.976548
11
106.606473
21
238.125326
0
LINE
8
#flowRoot14
10
106.606473
20
238.125326
11
106.255934
21
238.125326
0
LINE
8
#flowRoot14
10
106.255934
20
238.125326
11
106.255934
21
239.976548
0
LINE
8
#flowRoot14
10
106.255934
20
239.976548
11
105.922449
21
239.976548
0
LINE
8
#flowRoot14
10
105.922449
20
239.976548
11
105.922449
21
240.247505
0
LINE
8
#flowRoot14
10
105.922449
20
240.247505
11
106.255934
21
240.247505
0
LINE
8
#flowRoot14
10
106.255934
20
240.247505
11
106.255934
21
240.395299
0
LINE
8
#flowRoot14
10
106.255934
20
240.395299
11
106.420783
21
240.910686
0
LINE
8
#flowRoot14
10
106.420783
20
240.910686
11
106.943748
21
241.073638
0
LINE
8
#flowRoot14
10
106.943748
20
241.073638
11
106.943748
21
241.073638
0
LINE
8
#flowRoot14
10
109.465730
20
240.003075
11
109.022346
21
239.783278
0
LINE
8
#flowRoot14
10
109.022346
20
239.783278
11
108.859393
21
239.184520
0
LINE
8
#flowRoot14
10
108.859393
20
239.184520
11
109.020451
21
238.583868
0
LINE
8
#flowRoot14
10
109.020451
20
238.583868
11
109.465730
21
238.365966
0
LINE
8
#flowRoot14
10
109.465730
20
238.365966
11
109.907219
21
238.585763
0
LINE
8
#flowRoot14
10
109.907219
20
238.585763
11
110.070172
21
239.184520
0
LINE
8
#flowRoot14
10
110.070172
20
239.184520
11
109.907219
21
239.781383
0
LINE
8
#flowRoot14
10
109.907219
20
239.781383
11
109.465730
21
240.003075
0
LINE
8
#flowRoot14
10
109.465730
20
240.003075
11
109.465730
21
240.003075
0
LINE
8
#flowRoot14
10
109.465730
20
240.298664
11
109.871691
21
240.224767
0
LINE
8
#flowRoot14
10
109.871691
20
240.224767
11
110.180070
21
240.003075
0
LINE
8
#flowRoot14
10
110.180070
20
240.003075
11
110.374762
21
239.650642
0
LINE
8
#flowRoot14
10
110.374762
20
239.650642
11
110.439659
21
239.184520
0
LINE
8
#flowRoot14
10
110.439659
20
239.184520
11
110.374762
21
238.719346
0
LINE
8
#flowRoot14
10
110.374762
20
238.719346
11
110.180070
21
238.365966
0
LINE
8
#flowRoot14
10
110.180070
20
238.365966
11
109.871691
21
238.144274
0
LINE
8
#flowRoot14
10
109.871691
20
238.144274
11
109.465730
21
238.070377
0
LINE
8
#flowRoot14
10
109.465730
20
238.070377
11
109.058347
21
238.144274
0
LINE
8
#flowRoot14
10
109.058347
20
238.144274
11
108.749495
21
238.365966
0
LINE
8
#flowRoot14
10
108.749495
20
238.365966
11
108.556225
21
238.719346
0
LINE
8
#flowRoot14
10
108.556225
20
238.719346
11
108.491802
21
239.184520
0
LINE
8
#flowRoot14
10
108.491802
20
239.184520
11
108.556225
21
239.650642
0
LINE
8
#flowRoot14
10
108.556225
20
239.650642
11
108.749495
21
240.003075
0
LINE
8
#flowRoot14
10
108.749495
20
240.003075
11
109.058347
21
240.224767
0
LINE
8
#flowRoot14
10
109.058347
20
240.224767
11
109.465730
21
240.298664
0
LINE
8
#flowRoot14
10
109.465730
20
240.298664
11
109.465730
21
240.298664
0
LINE
8
#flowRoot14
10
110.814829
20
240.247505
11
111.163473
21
240.247505
0
LINE
8
#flowRoot14
10
111.163473
20
240.247505
11
111.599277
21
238.591447
0
LINE
8
#flowRoot14
10
111.599277
20
238.591447
11
112.033187
21
240.247505
0
LINE
8
#flowRoot14
10
112.033187
20
240.247505
11
112.444359
21
240.247505
0
LINE
8
#flowRoot14
10
112.444359
20
240.247505
11
112.880164
21
238.591447
0
LINE
8
#flowRoot14
10
112.880164
20
238.591447
11
113.314074
21
240.247505
0
LINE
8
#flowRoot14
10
113.314074
20
240.247505
11
113.662718
21
240.247505
0
LINE
8
#flowRoot14
10
113.662718
20
240.247505
11
113.107540
21
238.125326
0
LINE
8
#flowRoot14
10
113.107540
20
238.125326
11
112.696368
21
238.125326
0
LINE
8
#flowRoot14
10
112.696368
20
238.125326
11
112.239721
21
239.864754
0
LINE
8
#flowRoot14
10
112.239721
20
239.864754
11
111.781179
21
238.125326
0
LINE
8
#flowRoot14
10
111.781179
20
238.125326
11
111.370006
21
238.125326
0
LINE
8
#flowRoot14
10
111.370006
20
238.125326
11
110.814829
21
240.247505
0
LINE
8
#flowRoot14
10
115.769738
20
240.850051
11
115.769738
21
240.247505
0
LINE
8
#flowRoot14
10
115.769738
20
240.247505
11
116.487869
21
240.247505
0
LINE
8
#flowRoot14
10
116.487869
20
240.247505
11
116.487869
21
239.976548
0
LINE
8
#flowRoot14
10
116.487869
20
239.976548
11
115.769738
21
239.976548
0
LINE
8
#flowRoot14
10
115.769738
20
239.976548
11
115.769738
21
238.824508
0
LINE
8
#flowRoot14
10
115.769738
20
238.824508
11
115.839846
21
238.491023
0
LINE
8
#flowRoot14
10
115.839846
20
238.491023
11
116.129750
21
238.417125
0
LINE
8
#flowRoot14
10
116.129750
20
238.417125
11
116.487869
21
238.417125
0
LINE
8
#flowRoot14
10
116.487869
20
238.417125
11
116.487869
21
238.125326
0
LINE
8
#flowRoot14
10
116.487869
20
238.125326
11
116.129750
21
238.125326
0
LINE
8
#flowRoot14
10
116.129750
20
238.125326
11
115.572679
21
238.275015
0
LINE
8
#flowRoot14
10
115.572679
20
238.275015
11
115.419200
21
238.824508
0
LINE
8
#flowRoot14
10
115.419200
20
238.824508
11
115.419200
21
239.976548
0
LINE
8
#flowRoot14
10
115.419200
20
239.976548
11
115.163401
21
239.976548
0
LINE
8
#flowRoot14
10
115.163401
20
239.976548
11
115.163401
21
240.247505
0
LINE
8
#flowRoot14
10
115.163401
20
240.247505
11
115.419200
21
240.247505
0
LINE
8
#flowRoot14
10
115.419200
20
240.247505
11
115.419200
21
240.850051
0
LINE
8
#flowRoot14
10
115.419200
20
240.850051
11
115.769738
21
240.850051
0
LINE
8
#flowRoot14
10
118.761631
20
239.273576
11
118.761631
21
239.103044
0
LINE
8
#flowRoot14
10
118.761631
20
239.103044
11
117.158628
21
239.103044
0
LINE
8
#flowRoot14
10
117.158628
20
239.103044
11
117.374636
21
238.553551
0
LINE
8
#flowRoot14
10
117.374636
20
238.553551
11
117.916549
21
238.365966
0
LINE
8
#flowRoot14
10
117.916549
20
238.365966
11
118.304984
21
238.415230
0
LINE
8
#flowRoot14
10
118.304984
20
238.415230
11
118.680155
21
238.563025
0
LINE
8
#flowRoot14
10
118.680155
20
238.563025
11
118.680155
21
238.233329
0
LINE
8
#flowRoot14
10
118.680155
20
238.233329
11
118.295510
21
238.112062
0
LINE
8
#flowRoot14
10
118.295510
20
238.112062
11
117.895707
21
238.070377
0
LINE
8
#flowRoot14
10
117.895707
20
238.070377
11
117.440480
21
238.144274
0
LINE
8
#flowRoot14
10
117.440480
20
238.144274
11
117.090415
21
238.365966
0
LINE
8
#flowRoot14
10
117.090415
20
238.365966
11
116.868724
21
238.713662
0
LINE
8
#flowRoot14
10
116.868724
20
238.713662
11
116.794826
21
239.165572
0
LINE
8
#flowRoot14
10
116.794826
20
239.165572
11
116.864934
21
239.632641
0
LINE
8
#flowRoot14
10
116.864934
20
239.632641
11
117.075257
21
239.991706
0
LINE
8
#flowRoot14
10
117.075257
20
239.991706
11
117.406374
21
240.221925
0
LINE
8
#flowRoot14
10
117.406374
20
240.221925
11
117.835073
21
240.298664
0
LINE
8
#flowRoot14
10
117.835073
20
240.298664
11
118.218297
21
240.229504
0
LINE
8
#flowRoot14
10
118.218297
20
240.229504
11
118.511517
21
240.022023
0
LINE
8
#flowRoot14
10
118.511517
20
240.022023
11
118.699103
21
239.697538
0
LINE
8
#flowRoot14
10
118.699103
20
239.697538
11
118.761631
21
239.273576
0
LINE
8
#flowRoot14
10
118.761631
20
239.273576
11
118.761631
21
239.273576
0
LINE
8
#flowRoot14
10
118.412988
20
239.375895
11
118.251929
21
239.832542
0
LINE
8
#flowRoot14
10
118.251929
20
239.832542
11
117.838863
21
240.003075
0
LINE
8
#flowRoot14
10
117.838863
20
240.003075
11
117.370846
21
239.838227
0
LINE
8
#flowRoot14
10
117.370846
20
239.838227
11
117.169998
21
239.374000
0
LINE
8
#flowRoot14
10
117.169998
20
239.374000
11
118.412988
21
239.375895
0
LINE
8
#flowRoot14
10
121.029710
20
240.247505
11
120.262315
21
239.214837
0
LINE
8
#flowRoot14
10
120.262315
20
239.214837
11
121.069501
21
238.125326
0
LINE
8
#flowRoot14
10
121.069501
20
238.125326
11
120.658329
21
238.125326
0
LINE
8
#flowRoot14
10
120.658329
20
238.125326
11
120.040623
21
238.959039
0
LINE
8
#flowRoot14
10
120.040623
20
238.959039
11
119.422918
21
238.125326
0
LINE
8
#flowRoot14
10
119.422918
20
238.125326
11
119.011746
21
238.125326
0
LINE
8
#flowRoot14
10
119.011746
20
238.125326
11
119.835985
21
239.235680
0
LINE
8
#flowRoot14
10
119.835985
20
239.235680
11
119.081853
21
240.247505
0
LINE
8
#flowRoot14
10
119.081853
20
240.247505
11
119.493025
21
240.247505
0
LINE
8
#flowRoot14
10
119.493025
20
240.247505
11
120.055782
21
239.491478
0
LINE
8
#flowRoot14
10
120.055782
20
239.491478
11
120.618538
21
240.247505
0
LINE
8
#flowRoot14
10
120.618538
20
240.247505
11
121.029710
21
240.247505
0
LINE
8
#flowRoot14
10
121.907003
20
240.850051
11
121.907003
21
240.247505
0
LINE
8
#flowRoot14
10
121.907003
20
240.247505
11
122.625134
21
240.247505
0
LINE
8
#flowRoot14
10
122.625134
20
240.247505
11
122.625134
21
239.976548
0
LINE
8
#flowRoot14
10
122.625134
20
239.976548
11
121.907003
21
239.976548
0
LINE
8
#flowRoot14
10
121.907003
20
239.976548
11
121.907003
21
238.824508
0
LINE
8
#flowRoot14
10
121.907003
20
238.824508
11
121.977111
21
238.491023
0
LINE
8
#flowRoot14
10
121.977111
20
238.491023
11
122.267016
21
238.417125
0
LINE
8
#flowRoot14
10
122.267016
20
238.417125
11
122.625134
21
238.417125
0
LINE
8
#flowRoot14
10
122.625134
20
238.417125
11
122.625134
21
238.125326
0
LINE
8
#flowRoot14
10
122.625134
20
238.125326
11
122.267016
21
238.125326
0
LINE
8
#flowRoot14
10
122.267016
20
238.125326
11
121.709944
21
238.275015
0
LINE
8
#flowRoot14
10
121.709944
20
238.275015
11
121.556465
21
238.824508
0
LINE
8
#flowRoot14
10
121.556465
20
238.824508
11
121.556465
21
239.976548
0
LINE
8
#flowRoot14
10
121.556465
20
239.976548
11
121.300666
21
239.976548
0
LINE
8
#flowRoot14
10
121.300666
20
239.976548
11
121.300666
21
240.247505
0
LINE
8
#flowRoot14
10
121.300666
20
240.247505
11
121.556465
21
240.247505
0
LINE
8
#flowRoot14
10
121.556465
20
240.247505
11
121.556465
21
240.850051
0
LINE
8
#flowRoot14
10
121.556465
20
240.850051
11
121.907003
21
240.850051
0
LINE
8
#flowRoot14
10
105.996347
20
235.396810
11
106.344990
21
235.396810
0
LINE
8
#flowRoot14
10
106.344990
20
235.396810
11
106.780795
21
233.740752
0
LINE
8
#flowRoot14
10
106.780795
20
233.740752
11
107.214705
21
235.396810
0
LINE
8
#flowRoot14
10
107.214705
20
235.396810
11
107.625877
21
235.396810
0
LINE
8
#flowRoot14
10
107.625877
20
235.396810
11
108.061681
21
233.740752
0
LINE
8
#flowRoot14
10
108.061681
20
233.740752
11
108.495591
21
235.396810
0
LINE
8
#flowRoot14
10
108.495591
20
235.396810
11
108.844235
21
235.396810
0
LINE
8
#flowRoot14
10
108.844235
20
235.396810
11
108.289057
21
233.274631
0
LINE
8
#flowRoot14
10
108.289057
20
233.274631
11
107.877886
21
233.274631
0
LINE
8
#flowRoot14
10
107.877886
20
233.274631
11
107.421238
21
235.014060
0
LINE
8
#flowRoot14
10
107.421238
20
235.014060
11
106.962696
21
233.274631
0
LINE
8
#flowRoot14
10
106.962696
20
233.274631
11
106.551524
21
233.274631
0
LINE
8
#flowRoot14
10
106.551524
20
233.274631
11
105.996347
21
235.396810
0
LINE
8
#flowRoot14
10
111.136946
20
234.555517
11
111.136946
21
233.274631
0
LINE
8
#flowRoot14
10
111.136946
20
233.274631
11
110.788302
21
233.274631
0
LINE
8
#flowRoot14
10
110.788302
20
233.274631
11
110.788302
21
234.544149
0
LINE
8
#flowRoot14
10
110.788302
20
234.544149
11
110.670824
21
234.995112
0
LINE
8
#flowRoot14
10
110.670824
20
234.995112
11
110.318391
21
235.144801
0
LINE
8
#flowRoot14
10
110.318391
20
235.144801
11
109.873113
21
234.964795
0
LINE
8
#flowRoot14
10
109.873113
20
234.964795
11
109.710159
21
234.474041
0
LINE
8
#flowRoot14
10
109.710159
20
234.474041
11
109.710159
21
233.274631
0
LINE
8
#flowRoot14
10
109.710159
20
233.274631
11
109.359621
21
233.274631
0
LINE
8
#flowRoot14
10
109.359621
20
233.274631
11
109.359621
21
236.222944
0
LINE
8
#flowRoot14
10
109.359621
20
236.222944
11
109.710159
21
236.222944
0
LINE
8
#flowRoot14
10
109.710159
20
236.222944
11
109.710159
21
235.067115
0
LINE
8
#flowRoot14
10
109.710159
20
235.067115
11
110.003854
21
235.353229
0
LINE
8
#flowRoot14
10
110.003854
20
235.353229
11
110.396078
21
235.447969
0
LINE
8
#flowRoot14
10
110.396078
20
235.447969
11
110.949360
21
235.220593
0
LINE
8
#flowRoot14
10
110.949360
20
235.220593
11
111.136946
21
234.555517
0
LINE
8
#flowRoot14
10
111.136946
20
234.555517
11
111.136946
21
234.555517
0
LINE
8
#flowRoot14
10
111.832338
20
235.396810
11
112.180982
21
235.396810
0
LINE
8
#flowRoot14
10
112.180982
20
235.396810
11
112.180982
21
233.274631
0
LINE
8
#flowRoot14
10
112.180982
20
233.274631
11
111.832338
21
233.274631
0
LINE
8
#flowRoot14
10
111.832338
20
233.274631
11
111.832338
21
235.396810
0
LINE
8
#flowRoot14
10
111.832338
20
236.222944
11
112.180982
21
236.222944
0
LINE
8
#flowRoot14
10
112.180982
20
236.222944
11
112.180982
21
235.781454
0
LINE
8
#flowRoot14
10
112.180982
20
235.781454
11
111.832338
21
235.781454
0
LINE
8
#flowRoot14
10
111.832338
20
235.781454
11
111.832338
21
236.222944
0
LINE
8
#flowRoot14
10
114.437692
20
235.315333
11
114.437692
21
234.989427
0
LINE
8
#flowRoot14
10
114.437692
20
234.989427
11
114.140208
21
235.110694
0
LINE
8
#flowRoot14
10
114.140208
20
235.110694
11
113.840829
21
235.152380
0
LINE
8
#flowRoot14
10
113.840829
20
235.152380
11
113.314074
21
234.936373
0
LINE
8
#flowRoot14
10
113.314074
20
234.936373
11
113.126488
21
234.333826
0
LINE
8
#flowRoot14
10
113.126488
20
234.333826
11
113.314074
21
233.729383
0
LINE
8
#flowRoot14
10
113.314074
20
233.729383
11
113.840829
21
233.515271
0
LINE
8
#flowRoot14
10
113.840829
20
233.515271
11
114.140208
21
233.555062
0
LINE
8
#flowRoot14
10
114.140208
20
233.555062
11
114.437692
21
233.678224
0
LINE
8
#flowRoot14
10
114.437692
20
233.678224
11
114.437692
21
233.356107
0
LINE
8
#flowRoot14
10
114.437692
20
233.356107
11
114.134524
21
233.253788
0
LINE
8
#flowRoot14
10
114.134524
20
233.253788
11
113.802933
21
233.219681
0
LINE
8
#flowRoot14
10
113.802933
20
233.219681
11
113.372813
21
233.295000
0
LINE
8
#flowRoot14
10
113.372813
20
233.295000
11
113.041222
21
233.520955
0
LINE
8
#flowRoot14
10
113.041222
20
233.520955
11
112.829478
21
233.874810
0
LINE
8
#flowRoot14
10
112.829478
20
233.874810
11
112.758897
21
234.333826
0
LINE
8
#flowRoot14
10
112.758897
20
234.333826
11
112.829952
21
234.797579
0
LINE
8
#flowRoot14
10
112.829952
20
234.797579
11
113.043117
21
235.150485
0
LINE
8
#flowRoot14
10
113.043117
20
235.150485
11
113.381813
21
235.373598
0
LINE
8
#flowRoot14
10
113.381813
20
235.373598
11
113.825670
21
235.447969
0
LINE
8
#flowRoot14
10
113.825670
20
235.447969
11
114.140208
21
235.413863
0
LINE
8
#flowRoot14
10
114.140208
20
235.413863
11
114.437692
21
235.315333
0
LINE
8
#flowRoot14
10
114.437692
20
235.315333
11
114.437692
21
235.315333
0
LINE
8
#flowRoot14
10
116.808089
20
234.555517
11
116.808089
21
233.274631
0
LINE
8
#flowRoot14
10
116.808089
20
233.274631
11
116.459446
21
233.274631
0
LINE
8
#flowRoot14
10
116.459446
20
233.274631
11
116.459446
21
234.544149
0
LINE
8
#flowRoot14
10
116.459446
20
234.544149
11
116.341968
21
234.995112
0
LINE
8
#flowRoot14
10
116.341968
20
234.995112
11
115.989535
21
235.144801
0
LINE
8
#flowRoot14
10
115.989535
20
235.144801
11
115.544256
21
234.964795
0
LINE
8
#flowRoot14
10
115.544256
20
234.964795
11
115.381304
21
234.474041
0
LINE
8
#flowRoot14
10
115.381304
20
234.474041
11
115.381304
21
233.274631
0
LINE
8
#flowRoot14
10
115.381304
20
233.274631
11
115.030765
21
233.274631
0
LINE
8
#flowRoot14
10
115.030765
20
233.274631
11
115.030765
21
236.222944
0
LINE
8
#flowRoot14
10
115.030765
20
236.222944
11
115.381304
21
236.222944
0
LINE
8
#flowRoot14
10
115.381304
20
236.222944
11
115.381304
21
235.067115
0
LINE
8
#flowRoot14
10
115.381304
20
235.067115
11
115.674998
21
235.353229
0
LINE
8
#flowRoot14
10
115.674998
20
235.353229
11
116.067222
21
235.447969
0
LINE
8
#flowRoot14
10
116.067222
20
235.447969
11
116.620504
21
235.220593
0
LINE
8
#flowRoot14
10
116.620504
20
235.220593
11
116.808089
21
234.555517
0
LINE
8
#flowRoot14
10
116.808089
20
234.555517
11
116.808089
21
234.555517
0
LINE
8
#flowRoot14
10
105.996347
20
230.546115
11
106.344990
21
230.546115
0
LINE
8
#flowRoot14
10
106.344990
20
230.546115
11
106.780795
21
228.890058
0
LINE
8
#flowRoot14
10
106.780795
20
228.890058
11
107.214705
21
230.546115
0
LINE
8
#flowRoot14
10
107.214705
20
230.546115
11
107.625877
21
230.546115
0
LINE
8
#flowRoot14
10
107.625877
20
230.546115
11
108.061681
21
228.890058
0
LINE
8
#flowRoot14
10
108.061681
20
228.890058
11
108.495591
21
230.546115
0
LINE
8
#flowRoot14
10
108.495591
20
230.546115
11
108.844235
21
230.546115
0
LINE
8
#flowRoot14
10
108.844235
20
230.546115
11
108.289057
21
228.423936
0
LINE
8
#flowRoot14
10
108.289057
20
228.423936
11
107.877886
21
228.423936
0
LINE
8
#flowRoot14
10
107.877886
20
228.423936
11
107.421238
21
230.163365
0
LINE
8
#flowRoot14
10
107.421238
20
230.163365
11
106.962696
21
228.423936
0
LINE
8
#flowRoot14
10
106.962696
20
228.423936
11
106.551524
21
228.423936
0
LINE
8
#flowRoot14
10
106.551524
20
228.423936
11
105.996347
21
230.546115
0
LINE
8
#flowRoot14
10
110.602611
20
230.220209
11
110.473765
21
230.269474
0
LINE
8
#flowRoot14
10
110.473765
20
230.269474
11
110.322180
21
230.286527
0
LINE
8
#flowRoot14
10
110.322180
20
230.286527
11
109.867428
21
230.093257
0
LINE
8
#flowRoot14
10
109.867428
20
230.093257
11
109.710159
21
229.541870
0
LINE
8
#flowRoot14
10
109.710159
20
229.541870
11
109.710159
21
228.423936
0
LINE
8
#flowRoot14
10
109.710159
20
228.423936
11
109.359621
21
228.423936
0
LINE
8
#flowRoot14
10
109.359621
20
228.423936
11
109.359621
21
230.546115
0
LINE
8
#flowRoot14
10
109.359621
20
230.546115
11
109.710159
21
230.546115
0
LINE
8
#flowRoot14
10
109.710159
20
230.546115
11
109.710159
21
230.216419
0
LINE
8
#flowRoot14
10
109.710159
20
230.216419
11
109.996275
21
230.502535
0
LINE
8
#flowRoot14
10
109.996275
20
230.502535
11
110.424500
21
230.597275
0
LINE
8
#flowRoot14
10
110.424500
20
230.597275
11
110.504082
21
230.591590
0
LINE
8
#flowRoot14
10
110.504082
20
230.591590
11
110.600717
21
230.578327
0
LINE
8
#flowRoot14
10
110.600717
20
230.578327
11
110.602611
21
230.220209
0
LINE
8
#flowRoot14
10
111.932763
20
229.490710
11
111.347269
21
229.394075
0
LINE
8
#flowRoot14
10
111.347269
20
229.394075
11
111.184316
21
229.064379
0
LINE
8
#flowRoot14
10
111.184316
20
229.064379
11
111.305583
21
228.768791
0
LINE
8
#flowRoot14
10
111.305583
20
228.768791
11
111.639068
21
228.660787
0
LINE
8
#flowRoot14
10
111.639068
20
228.660787
11
112.103296
21
228.865425
0
LINE
8
#flowRoot14
10
112.103296
20
228.865425
11
112.279512
21
229.413023
0
LINE
8
#flowRoot14
10
112.279512
20
229.413023
11
112.279512
21
229.490710
0
LINE
8
#flowRoot14
10
112.279512
20
229.490710
11
111.932763
21
229.490710
0
LINE
8
#flowRoot14
10
112.628156
20
229.634715
11
112.628156
21
228.423936
0
LINE
8
#flowRoot14
10
112.628156
20
228.423936
11
112.279512
21
228.423936
0
LINE
8
#flowRoot14
10
112.279512
20
228.423936
11
112.279512
21
228.746052
0
LINE
8
#flowRoot14
10
112.279512
20
228.746052
11
111.982028
21
228.459938
0
LINE
8
#flowRoot14
10
111.982028
20
228.459938
11
111.546223
21
228.368987
0
LINE
8
#flowRoot14
10
111.546223
20
228.368987
11
111.027047
21
228.550888
0
LINE
8
#flowRoot14
10
111.027047
20
228.550888
11
110.835672
21
229.041642
0
LINE
8
#flowRoot14
10
110.835672
20
229.041642
11
111.074418
21
229.581661
0
LINE
8
#flowRoot14
10
111.074418
20
229.581661
11
111.790653
21
229.763561
0
LINE
8
#flowRoot14
10
111.790653
20
229.763561
11
112.279512
21
229.763561
0
LINE
8
#flowRoot14
10
112.279512
20
229.763561
11
112.279512
21
229.797668
0
LINE
8
#flowRoot14
10
112.279512
20
229.797668
11
112.120349
21
230.169049
0
LINE
8
#flowRoot14
10
112.120349
20
230.169049
11
111.676965
21
230.301686
0
LINE
8
#flowRoot14
10
111.676965
20
230.301686
11
111.322636
21
230.258105
0
LINE
8
#flowRoot14
10
111.322636
20
230.258105
11
110.991046
21
230.127364
0
LINE
8
#flowRoot14
10
110.991046
20
230.127364
11
110.991046
21
230.449480
0
LINE
8
#flowRoot14
10
110.991046
20
230.449480
11
111.362427
21
230.559379
0
LINE
8
#flowRoot14
10
111.362427
20
230.559379
11
111.712966
21
230.597275
0
LINE
8
#flowRoot14
10
111.712966
20
230.597275
11
112.115138
21
230.537588
0
LINE
8
#flowRoot14
10
112.115138
20
230.537588
11
112.400780
21
230.358529
0
LINE
8
#flowRoot14
10
112.400780
20
230.358529
11
112.628156
21
229.634715
0
LINE
8
#flowRoot14
10
112.628156
20
229.634715
11
112.628156
21
229.634715
0
LINE
8
#flowRoot14
10
113.683560
20
228.742263
11
113.683560
21
227.616751
0
LINE
8
#flowRoot14
10
113.683560
20
227.616751
11
113.333022
21
227.616751
0
LINE
8
#flowRoot14
10
113.333022
20
227.616751
11
113.333022
21
230.546115
0
LINE
8
#flowRoot14
10
113.333022
20
230.546115
11
113.683560
21
230.546115
0
LINE
8
#flowRoot14
10
113.683560
20
230.546115
11
113.683560
21
230.223999
0
LINE
8
#flowRoot14
10
113.683560
20
230.223999
11
113.960202
21
230.504430
0
LINE
8
#flowRoot14
10
113.960202
20
230.504430
11
114.361900
21
230.597275
0
LINE
8
#flowRoot14
10
114.361900
20
230.597275
11
114.711964
21
230.520535
0
LINE
8
#flowRoot14
10
114.711964
20
230.520535
11
114.989079
21
230.290316
0
LINE
8
#flowRoot14
10
114.989079
20
230.290316
11
115.231614
21
229.483131
0
LINE
8
#flowRoot14
10
115.231614
20
229.483131
11
114.989079
21
228.675945
0
LINE
8
#flowRoot14
10
114.989079
20
228.675945
11
114.711964
21
228.445726
0
LINE
8
#flowRoot14
10
114.711964
20
228.445726
11
114.361900
21
228.368987
0
LINE
8
#flowRoot14
10
114.361900
20
228.368987
11
113.960202
21
228.459938
0
LINE
8
#flowRoot14
10
113.960202
20
228.459938
11
113.683560
21
228.742263
0
LINE
8
#flowRoot14
10
113.683560
20
228.742263
11
113.683560
21
228.742263
0
LINE
8
#flowRoot14
10
114.869707
20
229.483131
11
114.710543
21
230.085678
0
LINE
8
#flowRoot14
10
114.710543
20
230.085678
11
114.276634
21
230.305475
0
LINE
8
#flowRoot14
10
114.276634
20
230.305475
11
113.840829
21
230.085678
0
LINE
8
#flowRoot14
10
113.840829
20
230.085678
11
113.683560
21
229.483131
0
LINE
8
#flowRoot14
10
113.683560
20
229.483131
11
113.840829
21
228.878689
0
LINE
8
#flowRoot14
10
113.840829
20
228.878689
11
114.276634
21
228.660787
0
LINE
8
#flowRoot14
10
114.276634
20
228.660787
11
114.710543
21
228.878689
0
LINE
8
#flowRoot14
10
114.710543
20
228.878689
11
114.869707
21
229.483131
0
LINE
8
#flowRoot14
10
114.869707
20
229.483131
11
114.869707
21
229.483131
0
LINE
8
#flowRoot14
10
117.162417
20
230.483586
11
117.162417
21
230.153891
0
LINE
8
#flowRoot14
10
117.162417
20
230.153891
11
116.855460
21
230.267579
0
LINE
8
#flowRoot14
10
116.855460
20
230.267579
11
116.525764
21
230.305475
0
LINE
8
#flowRoot14
10
116.525764
20
230.305475
11
116.135435
21
230.225894
0
LINE
8
#flowRoot14
10
116.135435
20
230.225894
11
116.006588
21
229.987148
0
LINE
8
#flowRoot14
10
116.006588
20
229.987148
11
116.099434
21
229.795773
0
LINE
8
#flowRoot14
10
116.099434
20
229.795773
11
116.472709
21
229.665032
0
LINE
8
#flowRoot14
10
116.472709
20
229.665032
11
116.592082
21
229.638505
0
LINE
8
#flowRoot14
10
116.592082
20
229.638505
11
117.118837
21
229.413023
0
LINE
8
#flowRoot14
10
117.118837
20
229.413023
11
117.276106
21
229.009430
0
LINE
8
#flowRoot14
10
117.276106
20
229.009430
11
117.041150
21
228.541414
0
LINE
8
#flowRoot14
10
117.041150
20
228.541414
11
116.398812
21
228.368987
0
LINE
8
#flowRoot14
10
116.398812
20
228.368987
11
116.042589
21
228.403094
0
LINE
8
#flowRoot14
10
116.042589
20
228.403094
11
115.654155
21
228.501623
0
LINE
8
#flowRoot14
10
115.654155
20
228.501623
11
115.654155
21
228.861636
0
LINE
8
#flowRoot14
10
115.654155
20
228.861636
11
116.035010
21
228.710051
0
LINE
8
#flowRoot14
10
116.035010
20
228.710051
11
116.406391
21
228.660787
0
LINE
8
#flowRoot14
10
116.406391
20
228.660787
11
116.785352
21
228.744158
0
LINE
8
#flowRoot14
10
116.785352
20
228.744158
11
116.917988
21
228.982903
0
LINE
8
#flowRoot14
10
116.917988
20
228.982903
11
116.821353
21
229.200805
0
LINE
8
#flowRoot14
10
116.821353
20
229.200805
11
116.402602
21
229.346705
0
LINE
8
#flowRoot14
10
116.402602
20
229.346705
11
116.281334
21
229.375127
0
LINE
8
#flowRoot14
10
116.281334
20
229.375127
11
115.813318
21
229.583555
0
LINE
8
#flowRoot14
10
115.813318
20
229.583555
11
115.669313
21
229.971990
0
LINE
8
#flowRoot14
10
115.669313
20
229.971990
11
115.881531
21
230.434322
0
LINE
8
#flowRoot14
10
115.881531
20
230.434322
11
116.484078
21
230.597275
0
LINE
8
#flowRoot14
10
116.484078
20
230.597275
11
116.847880
21
230.568852
0
LINE
8
#flowRoot14
10
116.847880
20
230.568852
11
117.162417
21
230.483586
0
LINE
8
#flowRoot14
10
117.162417
20
230.483586
11
117.162417
21
230.483586
0
LINE
8
#text3727
10
53.253875
20
240.953643
11
53.638520
21
240.953643
0
LINE
8
#text3727
10
53.638520
20
240.953643
11
53.638520
21
239.235055
0
LINE
8
#text3727
10
53.638520
20
239.235055
11
53.803368
21
238.579453
0
LINE
8
#text3727
10
53.803368
20
238.579453
11
54.337704
21
238.380499
0
LINE
8
#text3727
10
54.337704
20
238.380499
11
54.870143
21
238.579453
0
LINE
8
#text3727
10
54.870143
20
238.579453
11
55.034992
21
239.235055
0
LINE
8
#text3727
10
55.034992
20
239.235055
11
55.034992
21
240.953643
0
LINE
8
#text3727
10
55.034992
20
240.953643
11
55.419637
21
240.953643
0
LINE
8
#text3727
10
55.419637
20
240.953643
11
55.419637
21
239.187685
0
LINE
8
#text3727
10
55.419637
20
239.187685
11
55.350950
21
238.702142
0
LINE
8
#text3727
10
55.350950
20
238.702142
11
55.144889
21
238.352077
0
LINE
8
#text3727
10
55.144889
20
238.352077
11
54.806667
21
238.140333
0
LINE
8
#text3727
10
54.806667
20
238.140333
11
54.337704
21
238.069751
0
LINE
8
#text3727
10
54.337704
20
238.069751
11
53.866845
21
238.140333
0
LINE
8
#text3727
10
53.866845
20
238.140333
11
53.526726
21
238.352077
0
LINE
8
#text3727
10
53.526726
20
238.352077
11
53.322087
21
238.702142
0
LINE
8
#text3727
10
53.322087
20
238.702142
11
53.253875
21
239.187685
0
LINE
8
#text3727
10
53.253875
20
239.187685
11
53.253875
21
240.953643
0
LINE
8
#text3727
10
56.520519
20
240.639106
11
56.520519
21
239.576120
0
LINE
8
#text3727
10
56.520519
20
239.576120
11
57.001799
21
239.576120
0
LINE
8
#text3727
10
57.001799
20
239.576120
11
57.414866
21
239.714441
0
LINE
8
#text3727
10
57.414866
20
239.714441
11
57.560767
21
240.108560
0
LINE
8
#text3727
10
57.560767
20
240.108560
11
57.414866
21
240.500785
0
LINE
8
#text3727
10
57.414866
20
240.500785
11
57.001799
21
240.639106
0
LINE
8
#text3727
10
57.001799
20
240.639106
11
56.520519
21
240.639106
0
LINE
8
#text3727
10
56.137768
20
240.953643
11
57.001799
21
240.953643
0
LINE
8
#text3727
10
57.001799
20
240.953643
11
57.719930
21
240.737635
0
LINE
8
#text3727
10
57.719930
20
240.737635
11
57.903252
21
240.473310
0
LINE
8
#text3727
10
57.903252
20
240.473310
11
57.964359
21
240.108560
0
LINE
8
#text3727
10
57.964359
20
240.108560
11
57.903252
21
239.740968
0
LINE
8
#text3727
10
57.903252
20
239.740968
11
57.719930
21
239.475696
0
LINE
8
#text3727
10
57.719930
20
239.475696
11
57.001799
21
239.261583
0
LINE
8
#text3727
10
57.001799
20
239.261583
11
56.520519
21
239.261583
0
LINE
8
#text3727
10
56.520519
20
239.261583
11
56.520519
21
238.124700
0
LINE
8
#text3727
10
56.520519
20
238.124700
11
56.137768
21
238.124700
0
LINE
8
#text3727
10
56.137768
20
238.124700
11
56.137768
21
240.953643
0
LINE
8
#text3727
10
58.860603
20
240.639106
11
58.860603
21
239.576120
0
LINE
8
#text3727
10
58.860603
20
239.576120
11
59.341882
21
239.576120
0
LINE
8
#text3727
10
59.341882
20
239.576120
11
59.754949
21
239.714441
0
LINE
8
#text3727
10
59.754949
20
239.714441
11
59.900850
21
240.108560
0
LINE
8
#text3727
10
59.900850
20
240.108560
11
59.754949
21
240.500785
0
LINE
8
#text3727
10
59.754949
20
240.500785
11
59.341882
21
240.639106
0
LINE
8
#text3727
10
59.341882
20
240.639106
11
58.860603
21
240.639106
0
LINE
8
#text3727
10
58.477852
20
240.953643
11
59.341882
21
240.953643
0
LINE
8
#text3727
10
59.341882
20
240.953643
11
60.060013
21
240.737635
0
LINE
8
#text3727
10
60.060013
20
240.737635
11
60.243335
21
240.473310
0
LINE
8
#text3727
10
60.243335
20
240.473310
11
60.304443
21
240.108560
0
LINE
8
#text3727
10
60.304443
20
240.108560
11
60.243335
21
239.740968
0
LINE
8
#text3727
10
60.243335
20
239.740968
11
60.060013
21
239.475696
0
LINE
8
#text3727
10
60.060013
20
239.475696
11
59.341882
21
239.261583
0
LINE
8
#text3727
10
59.341882
20
239.261583
11
58.860603
21
239.261583
0
LINE
8
#text3727
10
58.860603
20
239.261583
11
58.860603
21
238.124700
0
LINE
8
#text3727
10
58.860603
20
238.124700
11
58.477852
21
238.124700
0
LINE
8
#text3727
10
58.477852
20
238.124700
11
58.477852
21
240.953643
0
LINE
8
#text3727
10
60.817935
20
240.953643
11
62.606630
21
240.953643
0
LINE
8
#text3727
10
62.606630
20
240.953643
11
62.606630
21
240.631526
0
LINE
8
#text3727
10
62.606630
20
240.631526
11
61.200686
21
240.631526
0
LINE
8
#text3727
10
61.200686
20
240.631526
11
61.200686
21
239.794023
0
LINE
8
#text3727
10
61.200686
20
239.794023
11
62.547892
21
239.794023
0
LINE
8
#text3727
10
62.547892
20
239.794023
11
62.547892
21
239.471906
0
LINE
8
#text3727
10
62.547892
20
239.471906
11
61.200686
21
239.471906
0
LINE
8
#text3727
10
61.200686
20
239.471906
11
61.200686
21
238.446817
0
LINE
8
#text3727
10
61.200686
20
238.446817
11
62.640737
21
238.446817
0
LINE
8
#text3727
10
62.640737
20
238.446817
11
62.640737
21
238.124700
0
LINE
8
#text3727
10
62.640737
20
238.124700
11
60.817935
21
238.124700
0
LINE
8
#text3727
10
60.817935
20
238.124700
11
60.817935
21
240.953643
0
LINE
8
#text3727
10
64.611333
20
239.451063
11
64.850079
21
239.272952
0
LINE
8
#text3727
10
64.850079
20
239.272952
11
65.085034
21
238.897780
0
LINE
8
#text3727
10
65.085034
20
238.897780
11
65.473468
21
238.124700
0
LINE
8
#text3727
10
65.473468
20
238.124700
11
65.062296
21
238.124700
0
LINE
8
#text3727
10
65.062296
20
238.124700
11
64.700389
21
238.850410
0
LINE
8
#text3727
10
64.700389
20
238.850410
11
64.427537
21
239.227476
0
LINE
8
#text3727
10
64.427537
20
239.227476
11
64.069419
21
239.320322
0
LINE
8
#text3727
10
64.069419
20
239.320322
11
63.652563
21
239.320322
0
LINE
8
#text3727
10
63.652563
20
239.320322
11
63.652563
21
238.124700
0
LINE
8
#text3727
10
63.652563
20
238.124700
11
63.269812
21
238.124700
0
LINE
8
#text3727
10
63.269812
20
238.124700
11
63.269812
21
240.953643
0
LINE
8
#text3727
10
63.269812
20
240.953643
11
64.133842
21
240.953643
0
LINE
8
#text3727
10
64.133842
20
240.953643
11
64.857657
21
240.750899
0
LINE
8
#text3727
10
64.857657
20
240.750899
11
65.096403
21
240.138877
0
LINE
8
#text3727
10
65.096403
20
240.138877
11
64.971345
21
239.695493
0
LINE
8
#text3727
10
64.971345
20
239.695493
11
64.611333
21
239.451063
0
LINE
8
#text3727
10
64.611333
20
239.451063
11
64.611333
21
239.451063
0
LINE
8
#text3727
10
63.652563
20
240.639106
11
63.652563
21
239.634859
0
LINE
8
#text3727
10
63.652563
20
239.634859
11
64.133842
21
239.634859
0
LINE
8
#text3727
10
64.133842
20
239.634859
11
64.550701
21
239.761811
0
LINE
8
#text3727
10
64.550701
20
239.761811
11
64.692811
21
240.138877
0
LINE
8
#text3727
10
64.692811
20
240.138877
11
64.550701
21
240.512154
0
LINE
8
#text3727
10
64.550701
20
240.512154
11
64.133842
21
240.639106
0
LINE
8
#text3727
10
64.133842
20
240.639106
11
63.652563
21
240.639106
0
LINE
8
#text3735
10
79.755757
20
240.953643
11
80.326092
21
240.953643
0
LINE
8
#text3735
10
80.326092
20
240.953643
11
81.048012
21
239.028522
0
LINE
8
#text3735
10
81.048012
20
239.028522
11
81.773723
21
240.953643
0
LINE
8
#text3735
10
81.773723
20
240.953643
11
82.344058
21
240.953643
0
LINE
8
#text3735
10
82.344058
20
240.953643
11
82.344058
21
238.124700
0
LINE
8
#text3735
10
82.344058
20
238.124700
11
81.970782
21
238.124700
0
LINE
8
#text3735
10
81.970782
20
238.124700
11
81.970782
21
240.608789
0
LINE
8
#text3735
10
81.970782
20
240.608789
11
81.241282
21
238.668509
0
LINE
8
#text3735
10
81.241282
20
238.668509
11
80.856636
21
238.668509
0
LINE
8
#text3735
10
80.856636
20
238.668509
11
80.127139
21
240.608789
0
LINE
8
#text3735
10
80.127139
20
240.608789
11
80.127139
21
238.124700
0
LINE
8
#text3735
10
80.127139
20
238.124700
11
79.755757
21
238.124700
0
LINE
8
#text3735
10
79.755757
20
238.124700
11
79.755757
21
240.953643
0
LINE
8
#text3735
10
83.052715
20
238.962204
11
83.052715
21
240.246881
0
LINE
8
#text3735
10
83.052715
20
240.246881
11
83.401358
21
240.246881
0
LINE
8
#text3735
10
83.401358
20
240.246881
11
83.401358
21
238.975467
0
LINE
8
#text3735
10
83.401358
20
238.975467
11
83.518836
21
238.522609
0
LINE
8
#text3735
10
83.518836
20
238.522609
11
83.871271
21
238.372919
0
LINE
8
#text3735
10
83.871271
20
238.372919
11
84.316551
21
238.552926
0
LINE
8
#text3735
10
84.316551
20
238.552926
11
84.481397
21
239.043680
0
LINE
8
#text3735
10
84.481397
20
239.043680
11
84.481397
21
240.246881
0
LINE
8
#text3735
10
84.481397
20
240.246881
11
84.830043
21
240.246881
0
LINE
8
#text3735
10
84.830043
20
240.246881
11
84.830043
21
238.124700
0
LINE
8
#text3735
10
84.830043
20
238.124700
11
84.481397
21
238.124700
0
LINE
8
#text3735
10
84.481397
20
238.124700
11
84.481397
21
238.450606
0
LINE
8
#text3735
10
84.481397
20
238.450606
11
84.185807
21
238.162596
0
LINE
8
#text3735
10
84.185807
20
238.162596
11
83.797373
21
238.069751
0
LINE
8
#text3735
10
83.797373
20
238.069751
11
83.242196
21
238.297127
0
LINE
8
#text3735
10
83.242196
20
238.297127
11
83.052715
21
238.962204
0
LINE
8
#text3735
10
83.052715
20
238.962204
11
83.052715
21
238.962204
0
LINE
8
#text3735
10
83.930009
20
240.298041
11
83.930009
21
240.298041
0
LINE
8
#text3735
10
85.548174
20
241.073016
11
85.896818
21
241.073016
0
LINE
8
#text3735
10
85.896818
20
241.073016
11
85.896818
21
238.124700
0
LINE
8
#text3735
10
85.896818
20
238.124700
11
85.548174
21
238.124700
0
LINE
8
#text3735
10
85.548174
20
238.124700
11
85.548174
21
241.073016
0
LINE
8
#text3735
10
86.971171
20
240.849429
11
86.971171
21
240.246881
0
LINE
8
#text3735
10
86.971171
20
240.246881
11
87.689302
21
240.246881
0
LINE
8
#text3735
10
87.689302
20
240.246881
11
87.689302
21
239.975924
0
LINE
8
#text3735
10
87.689302
20
239.975924
11
86.971171
21
239.975924
0
LINE
8
#text3735
10
86.971171
20
239.975924
11
86.971171
21
238.823883
0
LINE
8
#text3735
10
86.971171
20
238.823883
11
87.041280
21
238.490397
0
LINE
8
#text3735
10
87.041280
20
238.490397
11
87.331183
21
238.416500
0
LINE
8
#text3735
10
87.331183
20
238.416500
11
87.689302
21
238.416500
0
LINE
8
#text3735
10
87.689302
20
238.416500
11
87.689302
21
238.124700
0
LINE
8
#text3735
10
87.689302
20
238.124700
11
87.331183
21
238.124700
0
LINE
8
#text3735
10
87.331183
20
238.124700
11
86.774112
21
238.274390
0
LINE
8
#text3735
10
86.774112
20
238.274390
11
86.620632
21
238.823883
0
LINE
8
#text3735
10
86.620632
20
238.823883
11
86.620632
21
239.975924
0
LINE
8
#text3735
10
86.620632
20
239.975924
11
86.364834
21
239.975924
0
LINE
8
#text3735
10
86.364834
20
239.975924
11
86.364834
21
240.246881
0
LINE
8
#text3735
10
86.364834
20
240.246881
11
86.620632
21
240.246881
0
LINE
8
#text3735
10
86.620632
20
240.246881
11
86.620632
21
240.849429
0
LINE
8
#text3735
10
86.620632
20
240.849429
11
86.971171
21
240.849429
0
LINE
8
#text3735
10
88.147845
20
240.246881
11
88.496489
21
240.246881
0
LINE
8
#text3735
10
88.496489
20
240.246881
11
88.496489
21
238.124700
0
LINE
8
#text3735
10
88.496489
20
238.124700
11
88.147845
21
238.124700
0
LINE
8
#text3735
10
88.147845
20
238.124700
11
88.147845
21
240.246881
0
LINE
8
#text3735
10
88.147845
20
241.073016
11
88.496489
21
241.073016
0
LINE
8
#text3735
10
88.496489
20
241.073016
11
88.496489
21
240.631526
0
LINE
8
#text3735
10
88.496489
20
240.631526
11
88.147845
21
240.631526
0
LINE
8
#text3735
10
88.147845
20
240.631526
11
88.147845
21
241.073016
0
LINE
8
#text3735
10
90.459507
20
241.073016
11
90.808151
21
241.073016
0
LINE
8
#text3735
10
90.808151
20
241.073016
11
90.808151
21
238.124700
0
LINE
8
#text3735
10
90.808151
20
238.124700
11
90.459507
21
238.124700
0
LINE
8
#text3735
10
90.459507
20
238.124700
11
90.459507
21
241.073016
0
LINE
8
#text3735
10
91.537651
20
240.246881
11
91.886295
21
240.246881
0
LINE
8
#text3735
10
91.886295
20
240.246881
11
91.886295
21
238.124700
0
LINE
8
#text3735
10
91.886295
20
238.124700
11
91.537651
21
238.124700
0
LINE
8
#text3735
10
91.537651
20
238.124700
11
91.537651
21
240.246881
0
LINE
8
#text3735
10
91.537651
20
241.073016
11
91.886295
21
241.073016
0
LINE
8
#text3735
10
91.886295
20
241.073016
11
91.886295
21
240.631526
0
LINE
8
#text3735
10
91.886295
20
240.631526
11
91.537651
21
240.631526
0
LINE
8
#text3735
10
91.537651
20
240.631526
11
91.537651
21
241.073016
0
LINE
8
#text3735
10
94.379857
20
239.405588
11
94.379857
21
238.124700
0
LINE
8
#text3735
10
94.379857
20
238.124700
11
94.031213
21
238.124700
0
LINE
8
#text3735
10
94.031213
20
238.124700
11
94.031213
21
239.394219
0
LINE
8
#text3735
10
94.031213
20
239.394219
11
93.913733
21
239.845182
0
LINE
8
#text3735
10
93.913733
20
239.845182
11
93.561301
21
239.994872
0
LINE
8
#text3735
10
93.561301
20
239.994872
11
93.116021
21
239.814866
0
LINE
8
#text3735
10
93.116021
20
239.814866
11
92.953069
21
239.324111
0
LINE
8
#text3735
10
92.953069
20
239.324111
11
92.953069
21
238.124700
0
LINE
8
#text3735
10
92.953069
20
238.124700
11
92.602529
21
238.124700
0
LINE
8
#text3735
10
92.602529
20
238.124700
11
92.602529
21
240.246881
0
LINE
8
#text3735
10
92.602529
20
240.246881
11
92.953069
21
240.246881
0
LINE
8
#text3735
10
92.953069
20
240.246881
11
92.953069
21
239.917185
0
LINE
8
#text3735
10
92.953069
20
239.917185
11
93.246764
21
240.203301
0
LINE
8
#text3735
10
93.246764
20
240.203301
11
93.638988
21
240.298041
0
LINE
8
#text3735
10
93.638988
20
240.298041
11
94.192270
21
240.070664
0
LINE
8
#text3735
10
94.192270
20
240.070664
11
94.379857
21
239.405588
0
LINE
8
#text3735
10
94.379857
20
239.405588
11
94.379857
21
239.405588
0
LINE
8
#text3735
10
96.890472
20
239.272952
11
96.890472
21
239.102419
0
LINE
8
#text3735
10
96.890472
20
239.102419
11
95.287467
21
239.102419
0
LINE
8
#text3735
10
95.287467
20
239.102419
11
95.503475
21
238.552926
0
LINE
8
#text3735
10
95.503475
20
238.552926
11
96.045388
21
238.365340
0
LINE
8
#text3735
10
96.045388
20
238.365340
11
96.433825
21
238.414605
0
LINE
8
#text3735
10
96.433825
20
238.414605
11
96.808996
21
238.562400
0
LINE
8
#text3735
10
96.808996
20
238.562400
11
96.808996
21
238.232704
0
LINE
8
#text3735
10
96.808996
20
238.232704
11
96.424351
21
238.111436
0
LINE
8
#text3735
10
96.424351
20
238.111436
11
96.024547
21
238.069751
0
LINE
8
#text3735
10
96.024547
20
238.069751
11
95.569320
21
238.143649
0
LINE
8
#text3735
10
95.569320
20
238.143649
11
95.219255
21
238.365340
0
LINE
8
#text3735
10
95.219255
20
238.365340
11
94.997562
21
238.713037
0
LINE
8
#text3735
10
94.997562
20
238.713037
11
94.923665
21
239.164948
0
LINE
8
#text3735
10
94.923665
20
239.164948
11
94.993773
21
239.632017
0
LINE
8
#text3735
10
94.993773
20
239.632017
11
95.204097
21
239.991083
0
LINE
8
#text3735
10
95.204097
20
239.991083
11
95.535214
21
240.221301
0
LINE
8
#text3735
10
95.535214
20
240.221301
11
95.963913
21
240.298041
0
LINE
8
#text3735
10
95.963913
20
240.298041
11
96.347137
21
240.228880
0
LINE
8
#text3735
10
96.347137
20
240.228880
11
96.640359
21
240.021399
0
LINE
8
#text3735
10
96.640359
20
240.021399
11
96.827944
21
239.696914
0
LINE
8
#text3735
10
96.827944
20
239.696914
11
96.890472
21
239.272952
0
LINE
8
#text3735
10
96.890472
20
239.272952
11
96.890472
21
239.272952
0
LINE
8
#text3735
10
96.541828
20
239.375271
11
96.380769
21
239.831919
0
LINE
8
#text3735
10
96.380769
20
239.831919
11
95.967702
21
240.002451
0
LINE
8
#text3735
10
95.967702
20
240.002451
11
95.499686
21
239.837603
0
LINE
8
#text3735
10
95.499686
20
239.837603
11
95.298836
21
239.373376
0
LINE
8
#text3735
10
95.298836
20
239.373376
11
96.541828
21
239.375271
0
LINE
8
#text3735
10
80.085451
20
235.998731
11
80.085451
21
235.396183
0
LINE
8
#text3735
10
80.085451
20
235.396183
11
80.803582
21
235.396183
0
LINE
8
#text3735
10
80.803582
20
235.396183
11
80.803582
21
235.125226
0
LINE
8
#text3735
10
80.803582
20
235.125226
11
80.085451
21
235.125226
0
LINE
8
#text3735
10
80.085451
20
235.125226
11
80.085451
21
233.973184
0
LINE
8
#text3735
10
80.085451
20
233.973184
11
80.155560
21
233.639698
0
LINE
8
#text3735
10
80.155560
20
233.639698
11
80.445464
21
233.565800
0
LINE
8
#text3735
10
80.445464
20
233.565800
11
80.803582
21
233.565800
0
LINE
8
#text3735
10
80.803582
20
233.565800
11
80.803582
21
233.273999
0
LINE
8
#text3735
10
80.803582
20
233.273999
11
80.445464
21
233.273999
0
LINE
8
#text3735
10
80.445464
20
233.273999
11
79.888392
21
233.423690
0
LINE
8
#text3735
10
79.888392
20
233.423690
11
79.734913
21
233.973184
0
LINE
8
#text3735
10
79.734913
20
233.973184
11
79.734913
21
235.125226
0
LINE
8
#text3735
10
79.734913
20
235.125226
11
79.479114
21
235.125226
0
LINE
8
#text3735
10
79.479114
20
235.125226
11
79.479114
21
235.396183
0
LINE
8
#text3735
10
79.479114
20
235.396183
11
79.734913
21
235.396183
0
LINE
8
#text3735
10
79.734913
20
235.396183
11
79.734913
21
235.998731
0
LINE
8
#text3735
10
79.734913
20
235.998731
11
80.085451
21
235.998731
0
LINE
8
#text3735
10
83.077348
20
234.422252
11
83.077348
21
234.251721
0
LINE
8
#text3735
10
83.077348
20
234.251721
11
81.474342
21
234.251721
0
LINE
8
#text3735
10
81.474342
20
234.251721
11
81.690350
21
233.702227
0
LINE
8
#text3735
10
81.690350
20
233.702227
11
82.232264
21
233.514640
0
LINE
8
#text3735
10
82.232264
20
233.514640
11
82.620701
21
233.563906
0
LINE
8
#text3735
10
82.620701
20
233.563906
11
82.995872
21
233.711702
0
LINE
8
#text3735
10
82.995872
20
233.711702
11
82.995872
21
233.382005
0
LINE
8
#text3735
10
82.995872
20
233.382005
11
82.611226
21
233.260736
0
LINE
8
#text3735
10
82.611226
20
233.260736
11
82.211423
21
233.219051
0
LINE
8
#text3735
10
82.211423
20
233.219051
11
81.756195
21
233.292948
0
LINE
8
#text3735
10
81.756195
20
233.292948
11
81.406130
21
233.514640
0
LINE
8
#text3735
10
81.406130
20
233.514640
11
81.184438
21
233.862337
0
LINE
8
#text3735
10
81.184438
20
233.862337
11
81.110541
21
234.314247
0
LINE
8
#text3735
10
81.110541
20
234.314247
11
81.180649
21
234.781317
0
LINE
8
#text3735
10
81.180649
20
234.781317
11
81.390972
21
235.140384
0
LINE
8
#text3735
10
81.390972
20
235.140384
11
81.722089
21
235.370603
0
LINE
8
#text3735
10
81.722089
20
235.370603
11
82.150788
21
235.447342
0
LINE
8
#text3735
10
82.150788
20
235.447342
11
82.534012
21
235.378182
0
LINE
8
#text3735
10
82.534012
20
235.378182
11
82.827235
21
235.170700
0
LINE
8
#text3735
10
82.827235
20
235.170700
11
83.014819
21
234.846215
0
LINE
8
#text3735
10
83.014819
20
234.846215
11
83.077348
21
234.422252
0
LINE
8
#text3735
10
83.077348
20
234.422252
11
83.077348
21
234.422252
0
LINE
8
#text3735
10
82.728704
20
234.524572
11
82.567644
21
234.981218
0
LINE
8
#text3735
10
82.567644
20
234.981218
11
82.154577
21
235.151753
0
LINE
8
#text3735
10
82.154577
20
235.151753
11
81.686562
21
234.986904
0
LINE
8
#text3735
10
81.686562
20
234.986904
11
81.485711
21
234.522678
0
LINE
8
#text3735
10
81.485711
20
234.522678
11
82.728704
21
234.524572
0
LINE
8
#text3735
10
85.345430
20
235.396183
11
84.578033
21
234.363512
0
LINE
8
#text3735
10
84.578033
20
234.363512
11
85.385220
21
233.273999
0
LINE
8
#text3735
10
85.385220
20
233.273999
11
84.974048
21
233.273999
0
LINE
8
#text3735
10
84.974048
20
233.273999
11
84.356342
21
234.107714
0
LINE
8
#text3735
10
84.356342
20
234.107714
11
83.738636
21
233.273999
0
LINE
8
#text3735
10
83.738636
20
233.273999
11
83.327463
21
233.273999
0
LINE
8
#text3735
10
83.327463
20
233.273999
11
84.151703
21
234.384356
0
LINE
8
#text3735
10
84.151703
20
234.384356
11
83.397570
21
235.396183
0
LINE
8
#text3735
10
83.397570
20
235.396183
11
83.808742
21
235.396183
0
LINE
8
#text3735
10
83.808742
20
235.396183
11
84.371500
21
234.640155
0
LINE
8
#text3735
10
84.371500
20
234.640155
11
84.934257
21
235.396183
0
LINE
8
#text3735
10
84.934257
20
235.396183
11
85.345430
21
235.396183
0
LINE
8
#text3735
10
86.222723
20
235.998731
11
86.222723
21
235.396183
0
LINE
8
#text3735
10
86.222723
20
235.396183
11
86.940855
21
235.396183
0
LINE
8
#text3735
10
86.940855
20
235.396183
11
86.940855
21
235.125226
0
LINE
8
#text3735
10
86.940855
20
235.125226
11
86.222723
21
235.125226
0
LINE
8
#text3735
10
86.222723
20
235.125226
11
86.222723
21
233.973184
0
LINE
8
#text3735
10
86.222723
20
233.973184
11
86.292830
21
233.639698
0
LINE
8
#text3735
10
86.292830
20
233.639698
11
86.582736
21
233.565800
0
LINE
8
#text3735
10
86.582736
20
233.565800
11
86.940855
21
233.565800
0
LINE
8
#text3735
10
86.940855
20
233.565800
11
86.940855
21
233.273999
0
LINE
8
#text3735
10
86.940855
20
233.273999
11
86.582736
21
233.273999
0
LINE
8
#text3735
10
86.582736
20
233.273999
11
86.025665
21
233.423690
0
LINE
8
#text3735
10
86.025665
20
233.423690
11
85.872185
21
233.973184
0
LINE
8
#text3735
10
85.872185
20
233.973184
11
85.872185
21
235.125226
0
LINE
8
#text3735
10
85.872185
20
235.125226
11
85.616387
21
235.125226
0
LINE
8
#text3735
10
85.616387
20
235.125226
11
85.616387
21
235.396183
0
LINE
8
#text3735
10
85.616387
20
235.396183
11
85.872185
21
235.396183
0
LINE
8
#text3735
10
85.872185
20
235.396183
11
85.872185
21
235.998731
0
LINE
8
#text3735
10
85.872185
20
235.998731
11
86.222723
21
235.998731
0
LINE
8
#text3735
10
79.755757
20
231.252244
11
81.381497
21
231.252244
0
LINE
8
#text3735
10
81.381497
20
231.252244
11
81.381497
21
230.930127
0
LINE
8
#text3735
10
81.381497
20
230.930127
11
80.138505
21
230.930127
0
LINE
8
#text3735
10
80.138505
20
230.930127
11
80.138505
21
230.096413
0
LINE
8
#text3735
10
80.138505
20
230.096413
11
81.260231
21
230.096413
0
LINE
8
#text3735
10
81.260231
20
230.096413
11
81.260231
21
229.774296
0
LINE
8
#text3735
10
81.260231
20
229.774296
11
80.138505
21
229.774296
0
LINE
8
#text3735
10
80.138505
20
229.774296
11
80.138505
21
228.423301
0
LINE
8
#text3735
10
80.138505
20
228.423301
11
79.755757
21
228.423301
0
LINE
8
#text3735
10
79.755757
20
228.423301
11
79.755757
21
231.252244
0
LINE
8
#text3735
10
83.136088
20
230.992656
11
82.761863
21
230.914969
0
LINE
8
#text3735
10
82.761863
20
230.914969
11
82.472905
21
230.681909
0
LINE
8
#text3735
10
82.472905
20
230.681909
11
82.228475
21
229.834931
0
LINE
8
#text3735
10
82.228475
20
229.834931
11
82.472905
21
228.989848
0
LINE
8
#text3735
10
82.472905
20
228.989848
11
82.761863
21
228.756787
0
LINE
8
#text3735
10
82.761863
20
228.756787
11
83.136088
21
228.679100
0
LINE
8
#text3735
10
83.136088
20
228.679100
11
83.509363
21
228.756787
0
LINE
8
#text3735
10
83.509363
20
228.756787
11
83.795479
21
228.989848
0
LINE
8
#text3735
10
83.795479
20
228.989848
11
84.039908
21
229.834931
0
LINE
8
#text3735
10
84.039908
20
229.834931
11
83.795479
21
230.681909
0
LINE
8
#text3735
10
83.795479
20
230.681909
11
83.509363
21
230.914969
0
LINE
8
#text3735
10
83.509363
20
230.914969
11
83.136088
21
230.992656
0
LINE
8
#text3735
10
83.136088
20
230.992656
11
83.136088
21
230.992656
0
LINE
8
#text3735
10
83.136088
20
231.303404
11
83.671369
21
231.203453
0
LINE
8
#text3735
10
83.671369
20
231.203453
11
84.087279
21
230.903600
0
LINE
8
#text3735
10
84.087279
20
230.903600
11
84.354447
21
230.437478
0
LINE
8
#text3735
10
84.354447
20
230.437478
11
84.443503
21
229.834931
0
LINE
8
#text3735
10
84.443503
20
229.834931
11
84.354447
21
229.233331
0
LINE
8
#text3735
10
84.354447
20
229.233331
11
84.087279
21
228.766262
0
LINE
8
#text3735
10
84.087279
20
228.766262
11
83.671369
21
228.467830
0
LINE
8
#text3735
10
83.671369
20
228.467830
11
83.136088
21
228.368353
0
LINE
8
#text3735
10
83.136088
20
228.368353
11
82.598909
21
228.467830
0
LINE
8
#text3735
10
82.598909
20
228.467830
11
82.181104
21
228.766262
0
LINE
8
#text3735
10
82.181104
20
228.766262
11
81.913938
21
229.232384
0
LINE
8
#text3735
10
81.913938
20
229.232384
11
81.824883
21
229.834931
0
LINE
8
#text3735
10
81.824883
20
229.834931
11
81.913938
21
230.437478
0
LINE
8
#text3735
10
81.913938
20
230.437478
11
82.181104
21
230.903600
0
LINE
8
#text3735
10
82.181104
20
230.903600
11
82.598909
21
231.203453
0
LINE
8
#text3735
10
82.598909
20
231.203453
11
83.136088
21
231.303404
0
LINE
8
#text3735
10
83.136088
20
231.303404
11
83.136088
21
231.303404
0
LINE
8
#text3735
10
86.190510
20
230.992656
11
85.816288
21
230.914969
0
LINE
8
#text3735
10
85.816288
20
230.914969
11
85.527331
21
230.681909
0
LINE
8
#text3735
10
85.527331
20
230.681909
11
85.282901
21
229.834931
0
LINE
8
#text3735
10
85.282901
20
229.834931
11
85.527331
21
228.989848
0
LINE
8
#text3735
10
85.527331
20
228.989848
11
85.816288
21
228.756787
0
LINE
8
#text3735
10
85.816288
20
228.756787
11
86.190510
21
228.679100
0
LINE
8
#text3735
10
86.190510
20
228.679100
11
86.563788
21
228.756787
0
LINE
8
#text3735
10
86.563788
20
228.756787
11
86.849904
21
228.989848
0
LINE
8
#text3735
10
86.849904
20
228.989848
11
87.094334
21
229.834931
0
LINE
8
#text3735
10
87.094334
20
229.834931
11
86.849904
21
230.681909
0
LINE
8
#text3735
10
86.849904
20
230.681909
11
86.563788
21
230.914969
0
LINE
8
#text3735
10
86.563788
20
230.914969
11
86.190510
21
230.992656
0
LINE
8
#text3735
10
86.190510
20
230.992656
11
86.190510
21
230.992656
0
LINE
8
#text3735
10
86.190510
20
231.303404
11
86.725794
21
231.203453
0
LINE
8
#text3735
10
86.725794
20
231.203453
11
87.141705
21
230.903600
0
LINE
8
#text3735
10
87.141705
20
230.903600
11
87.408871
21
230.437478
0
LINE
8
#text3735
10
87.408871
20
230.437478
11
87.497926
21
229.834931
0
LINE
8
#text3735
10
87.497926
20
229.834931
11
87.408871
21
229.233331
0
LINE
8
#text3735
10
87.408871
20
229.233331
11
87.141705
21
228.766262
0
LINE
8
#text3735
10
87.141705
20
228.766262
11
86.725794
21
228.467830
0
LINE
8
#text3735
10
86.725794
20
228.467830
11
86.190510
21
228.368353
0
LINE
8
#text3735
10
86.190510
20
228.368353
11
85.653334
21
228.467830
0
LINE
8
#text3735
10
85.653334
20
228.467830
11
85.235530
21
228.766262
0
LINE
8
#text3735
10
85.235530
20
228.766262
11
84.968362
21
229.232384
0
LINE
8
#text3735
10
84.968362
20
229.232384
11
84.879306
21
229.834931
0
LINE
8
#text3735
10
84.879306
20
229.834931
11
84.968362
21
230.437478
0
LINE
8
#text3735
10
84.968362
20
230.437478
11
85.235530
21
230.903600
0
LINE
8
#text3735
10
85.235530
20
230.903600
11
85.653334
21
231.203453
0
LINE
8
#text3735
10
85.653334
20
231.203453
11
86.190510
21
231.303404
0
LINE
8
#text3735
10
86.190510
20
231.303404
11
86.190510
21
231.303404
0
LINE
8
Layer 1
10
134.600876
20
238.528617
11
134.600876
21
239.288433
0
LINE
8
Layer 1
10
134.600876
20
239.288433
11
133.975591
21
239.288433
0
LINE
8
Layer 1
10
133.975591
20
239.288433
11
133.975591
21
239.602972
0
LINE
8
Layer 1
10
133.975591
20
239.602972
11
134.979837
21
239.602972
0
LINE
8
Layer 1
10
134.979837
20
239.602972
11
134.979837
21
238.388401
0
LINE
8
Layer 1
10
134.979837
20
238.388401
11
134.490977
21
238.149657
0
LINE
8
Layer 1
10
134.490977
20
238.149657
11
133.920641
21
238.070076
0
LINE
8
Layer 1
10
133.920641
20
238.070076
11
133.329462
21
238.166711
0
LINE
8
Layer 1
10
133.329462
20
238.166711
11
132.882288
21
238.456616
0
LINE
8
Layer 1
10
132.882288
20
238.456616
11
132.602331
21
238.920843
0
LINE
8
Layer 1
10
132.602331
20
238.920843
11
132.509012
21
239.536654
0
LINE
8
Layer 1
10
132.509012
20
239.536654
11
132.602331
21
240.153413
0
LINE
8
Layer 1
10
132.602331
20
240.153413
11
132.882288
21
240.616693
0
LINE
8
Layer 1
10
132.882288
20
240.616693
11
133.329462
21
240.908018
0
LINE
8
Layer 1
10
133.329462
20
240.908018
11
133.920641
21
241.005127
0
LINE
8
Layer 1
10
133.920641
20
241.005127
11
134.445502
21
240.936915
0
LINE
8
Layer 1
10
134.445502
20
240.936915
11
134.905940
21
240.736065
0
LINE
8
Layer 1
10
134.905940
20
240.736065
11
134.905940
21
240.328681
0
LINE
8
Layer 1
10
134.905940
20
240.328681
11
134.454976
21
240.599638
0
LINE
8
Layer 1
10
134.454976
20
240.599638
11
133.952853
21
240.690591
0
LINE
8
Layer 1
10
133.952853
20
240.690591
11
133.498100
21
240.618114
0
LINE
8
Layer 1
10
133.498100
20
240.618114
11
133.172193
21
240.400685
0
LINE
8
Layer 1
10
133.172193
20
240.400685
11
132.977502
21
240.039724
0
LINE
8
Layer 1
10
132.977502
20
240.039724
11
132.912605
21
239.536654
0
LINE
8
Layer 1
10
132.912605
20
239.536654
11
132.977502
21
239.035004
0
LINE
8
Layer 1
10
132.977502
20
239.035004
11
133.172193
21
238.674519
0
LINE
8
Layer 1
10
133.172193
20
238.674519
11
133.498100
21
238.457089
0
LINE
8
Layer 1
10
133.498100
20
238.457089
11
133.952853
21
238.384612
0
LINE
8
Layer 1
10
133.952853
20
238.384612
11
134.314761
21
238.418720
0
LINE
8
Layer 1
10
134.314761
20
238.418720
11
134.600876
21
238.528617
0
LINE
8
Layer 1
10
134.600876
20
238.528617
11
134.600876
21
238.528617
0
LINE
8
Layer 1
10
136.893589
20
239.921300
11
136.764743
21
239.970565
0
LINE
8
Layer 1
10
136.764743
20
239.970565
11
136.613158
21
239.987604
0
LINE
8
Layer 1
10
136.613158
20
239.987604
11
136.158405
21
239.794334
0
LINE
8
Layer 1
10
136.158405
20
239.794334
11
136.001136
21
239.242946
0
LINE
8
Layer 1
10
136.001136
20
239.242946
11
136.001136
21
238.125011
0
LINE
8
Layer 1
10
136.001136
20
238.125011
11
135.650598
21
238.125011
0
LINE
8
Layer 1
10
135.650598
20
238.125011
11
135.650598
21
240.247192
0
LINE
8
Layer 1
10
135.650598
20
240.247192
11
136.001136
21
240.247192
0
LINE
8
Layer 1
10
136.001136
20
240.247192
11
136.001136
21
239.917495
0
LINE
8
Layer 1
10
136.001136
20
239.917495
11
136.287252
21
240.203613
0
LINE
8
Layer 1
10
136.287252
20
240.203613
11
136.715478
21
240.298352
0
LINE
8
Layer 1
10
136.715478
20
240.298352
11
136.795060
21
240.292663
0
LINE
8
Layer 1
10
136.795060
20
240.292663
11
136.891695
21
240.279408
0
LINE
8
Layer 1
10
136.891695
20
240.279408
11
136.893589
21
239.921300
0
LINE
8
Layer 1
10
137.996366
20
240.002776
11
137.552981
21
239.782979
0
LINE
8
Layer 1
10
137.552981
20
239.782979
11
137.390028
21
239.184219
0
LINE
8
Layer 1
10
137.390028
20
239.184219
11
137.551087
21
238.583568
0
LINE
8
Layer 1
10
137.551087
20
238.583568
11
137.996366
21
238.365666
0
LINE
8
Layer 1
10
137.996366
20
238.365666
11
138.437855
21
238.585463
0
LINE
8
Layer 1
10
138.437855
20
238.585463
11
138.600808
21
239.184219
0
LINE
8
Layer 1
10
138.600808
20
239.184219
11
138.437855
21
239.781084
0
LINE
8
Layer 1
10
138.437855
20
239.781084
11
137.996366
21
240.002776
0
LINE
8
Layer 1
10
137.996366
20
240.002776
11
137.996366
21
240.002776
0
LINE
8
Layer 1
10
137.996366
20
240.298365
11
138.402327
21
240.224468
0
LINE
8
Layer 1
10
138.402327
20
240.224468
11
138.710707
21
240.002776
0
LINE
8
Layer 1
10
138.710707
20
240.002776
11
138.905398
21
239.650342
0
LINE
8
Layer 1
10
138.905398
20
239.650342
11
138.970295
21
239.184219
0
LINE
8
Layer 1
10
138.970295
20
239.184219
11
138.905398
21
238.719046
0
LINE
8
Layer 1
10
138.905398
20
238.719046
11
138.710707
21
238.365666
0
LINE
8
Layer 1
10
138.710707
20
238.365666
11
138.402327
21
238.143973
0
LINE
8
Layer 1
10
138.402327
20
238.143973
11
137.996366
21
238.070076
0
LINE
8
Layer 1
10
137.996366
20
238.070076
11
137.588983
21
238.143973
0
LINE
8
Layer 1
10
137.588983
20
238.143973
11
137.280130
21
238.365666
0
LINE
8
Layer 1
10
137.280130
20
238.365666
11
137.086860
21
238.719046
0
LINE
8
Layer 1
10
137.086860
20
238.719046
11
137.022436
21
239.184219
0
LINE
8
Layer 1
10
137.022436
20
239.184219
11
137.086860
21
239.650342
0
LINE
8
Layer 1
10
137.086860
20
239.650342
11
137.280130
21
240.002776
0
LINE
8
Layer 1
10
137.280130
20
240.002776
11
137.588983
21
240.224468
0
LINE
8
Layer 1
10
137.588983
20
240.224468
11
137.996366
21
240.298365
0
LINE
8
Layer 1
10
137.996366
20
240.298365
11
137.996366
21
240.298365
0
LINE
8
Layer 1
10
139.512209
20
238.962528
11
139.512209
21
240.247205
0
LINE
8
Layer 1
10
139.512209
20
240.247205
11
139.860853
21
240.247205
0
LINE
8
Layer 1
10
139.860853
20
240.247205
11
139.860853
21
238.975791
0
LINE
8
Layer 1
10
139.860853
20
238.975791
11
139.978331
21
238.522934
0
LINE
8
Layer 1
10
139.978331
20
238.522934
11
140.330765
21
238.373243
0
LINE
8
Layer 1
10
140.330765
20
238.373243
11
140.776044
21
238.553250
0
LINE
8
Layer 1
10
140.776044
20
238.553250
11
140.940892
21
239.044003
0
LINE
8
Layer 1
10
140.940892
20
239.044003
11
140.940892
21
240.247205
0
LINE
8
Layer 1
10
140.940892
20
240.247205
11
141.289536
21
240.247205
0
LINE
8
Layer 1
10
141.289536
20
240.247205
11
141.289536
21
238.125025
0
LINE
8
Layer 1
10
141.289536
20
238.125025
11
140.940892
21
238.125025
0
LINE
8
Layer 1
10
140.940892
20
238.125025
11
140.940892
21
238.450930
0
LINE
8
Layer 1
10
140.940892
20
238.450930
11
140.645302
21
238.162921
0
LINE
8
Layer 1
10
140.645302
20
238.162921
11
140.256868
21
238.070076
0
LINE
8
Layer 1
10
140.256868
20
238.070076
11
139.701690
21
238.297451
0
LINE
8
Layer 1
10
139.701690
20
238.297451
11
139.512209
21
238.962528
0
LINE
8
Layer 1
10
139.512209
20
238.962528
11
139.512209
21
238.962528
0
LINE
8
Layer 1
10
140.389504
20
240.298365
11
140.389504
21
240.298365
0
LINE
8
Layer 1
10
142.344942
20
238.443352
11
142.344942
21
237.317838
0
LINE
8
Layer 1
10
142.344942
20
237.317838
11
141.994403
21
237.317838
0
LINE
8
Layer 1
10
141.994403
20
237.317838
11
141.994403
21
240.247205
0
LINE
8
Layer 1
10
141.994403
20
240.247205
11
142.344942
21
240.247205
0
LINE
8
Layer 1
10
142.344942
20
240.247205
11
142.344942
21
239.925089
0
LINE
8
Layer 1
10
142.344942
20
239.925089
11
142.621583
21
240.205520
0
LINE
8
Layer 1
10
142.621583
20
240.205520
11
143.023282
21
240.298365
0
LINE
8
Layer 1
10
143.023282
20
240.298365
11
143.373347
21
240.221625
0
LINE
8
Layer 1
10
143.373347
20
240.221625
11
143.650462
21
239.991406
0
LINE
8
Layer 1
10
143.650462
20
239.991406
11
143.892997
21
239.184219
0
LINE
8
Layer 1
10
143.892997
20
239.184219
11
143.650462
21
238.377032
0
LINE
8
Layer 1
10
143.650462
20
238.377032
11
143.373347
21
238.146815
0
LINE
8
Layer 1
10
143.373347
20
238.146815
11
143.023282
21
238.070076
0
LINE
8
Layer 1
10
143.023282
20
238.070076
11
142.621583
21
238.161027
0
LINE
8
Layer 1
10
142.621583
20
238.161027
11
142.344942
21
238.443352
0
LINE
8
Layer 1
10
142.344942
20
238.443352
11
142.344942
21
238.443352
0
LINE
8
Layer 1
10
143.531089
20
239.184219
11
143.371926
21
239.786767
0
LINE
8
Layer 1
10
143.371926
20
239.786767
11
142.938015
21
240.006564
0
LINE
8
Layer 1
10
142.938015
20
240.006564
11
142.502210
21
239.786767
0
LINE
8
Layer 1
10
142.502210
20
239.786767
11
142.344942
21
239.184219
0
LINE
8
Layer 1
10
142.344942
20
239.184219
11
142.502210
21
238.579777
0
LINE
8
Layer 1
10
142.502210
20
238.579777
11
142.938015
21
238.361874
0
LINE
8
Layer 1
10
142.938015
20
238.361874
11
143.371926
21
238.579777
0
LINE
8
Layer 1
10
143.371926
20
238.579777
11
143.531089
21
239.184219
0
LINE
8
Layer 1
10
143.531089
20
239.184219
11
143.531089
21
239.184219
0
LINE
8
Layer 1
10
146.286136
20
239.273275
11
146.286136
21
239.102744
0
LINE
8
Layer 1
10
146.286136
20
239.102744
11
144.683130
21
239.102744
0
LINE
8
Layer 1
10
144.683130
20
239.102744
11
144.899139
21
238.553250
0
LINE
8
Layer 1
10
144.899139
20
238.553250
11
145.441052
21
238.365666
0
LINE
8
Layer 1
10
145.441052
20
238.365666
11
145.829487
21
238.414928
0
LINE
8
Layer 1
10
145.829487
20
238.414928
11
146.204657
21
238.562724
0
LINE
8
Layer 1
10
146.204657
20
238.562724
11
146.204657
21
238.233027
0
LINE
8
Layer 1
10
146.204657
20
238.233027
11
145.820012
21
238.111761
0
LINE
8
Layer 1
10
145.820012
20
238.111761
11
145.420208
21
238.070076
0
LINE
8
Layer 1
10
145.420208
20
238.070076
11
144.964983
21
238.143973
0
LINE
8
Layer 1
10
144.964983
20
238.143973
11
144.614918
21
238.365666
0
LINE
8
Layer 1
10
144.614918
20
238.365666
11
144.393226
21
238.713362
0
LINE
8
Layer 1
10
144.393226
20
238.713362
11
144.319328
21
239.165272
0
LINE
8
Layer 1
10
144.319328
20
239.165272
11
144.389435
21
239.632341
0
LINE
8
Layer 1
10
144.389435
20
239.632341
11
144.599758
21
239.991406
0
LINE
8
Layer 1
10
144.599758
20
239.991406
11
144.930875
21
240.221625
0
LINE
8
Layer 1
10
144.930875
20
240.221625
11
145.359577
21
240.298365
0
LINE
8
Layer 1
10
145.359577
20
240.298365
11
145.742800
21
240.229204
0
LINE
8
Layer 1
10
145.742800
20
240.229204
11
146.036020
21
240.021722
0
LINE
8
Layer 1
10
146.036020
20
240.021722
11
146.223607
21
239.697238
0
LINE
8
Layer 1
10
146.223607
20
239.697238
11
146.286136
21
239.273275
0
LINE
8
Layer 1
10
146.286136
20
239.273275
11
146.286136
21
239.273275
0
LINE
8
Layer 1
10
145.937492
20
239.375595
11
145.776432
21
239.832244
0
LINE
8
Layer 1
10
145.776432
20
239.832244
11
145.363365
21
240.002776
0
LINE
8
Layer 1
10
145.363365
20
240.002776
11
144.895350
21
239.837927
0
LINE
8
Layer 1
10
144.895350
20
239.837927
11
144.694500
21
239.373700
0
LINE
8
Layer 1
10
144.694500
20
239.373700
11
145.937492
21
239.375595
0
LINE
8
Layer 1
10
148.254837
20
239.925089
11
148.254837
21
241.073339
0
LINE
8
Layer 1
10
148.254837
20
241.073339
11
148.603481
21
241.073339
0
LINE
8
Layer 1
10
148.603481
20
241.073339
11
148.603481
21
238.125025
0
LINE
8
Layer 1
10
148.603481
20
238.125025
11
148.254837
21
238.125025
0
LINE
8
Layer 1
10
148.254837
20
238.125025
11
148.254837
21
238.443352
0
LINE
8
Layer 1
10
148.254837
20
238.443352
11
147.976302
21
238.161027
0
LINE
8
Layer 1
10
147.976302
20
238.161027
11
147.574602
21
238.070076
0
LINE
8
Layer 1
10
147.574602
20
238.070076
11
147.225484
21
238.146815
0
LINE
8
Layer 1
10
147.225484
20
238.146815
11
146.947421
21
238.377032
0
LINE
8
Layer 1
10
146.947421
20
238.377032
11
146.706783
21
239.184219
0
LINE
8
Layer 1
10
146.706783
20
239.184219
11
146.947421
21
239.991406
0
LINE
8
Layer 1
10
146.947421
20
239.991406
11
147.225484
21
240.221625
0
LINE
8
Layer 1
10
147.225484
20
240.221625
11
147.574602
21
240.298365
0
LINE
8
Layer 1
10
147.574602
20
240.298365
11
147.976302
21
240.205520
0
LINE
8
Layer 1
10
147.976302
20
240.205520
11
148.254837
21
239.925089
0
LINE
8
Layer 1
10
148.254837
20
239.925089
11
148.254837
21
239.925089
0
LINE
8
Layer 1
10
147.066796
20
239.184219
11
147.224064
21
238.579777
0
LINE
8
Layer 1
10
147.224064
20
238.579777
11
147.659869
21
238.361874
0
LINE
8
Layer 1
10
147.659869
20
238.361874
11
148.095674
21
238.579777
0
LINE
8
Layer 1
10
148.095674
20
238.579777
11
148.254837
21
239.184219
0
LINE
8
Layer 1
10
148.254837
20
239.184219
11
148.095674
21
239.786767
0
LINE
8
Layer 1
10
148.095674
20
239.786767
11
147.659869
21
240.006564
0
LINE
8
Layer 1
10
147.659869
20
240.006564
11
147.224064
21
239.786767
0
LINE
8
Layer 1
10
147.224064
20
239.786767
11
147.066796
21
239.184219
0
LINE
8
Layer 1
10
147.066796
20
239.184219
11
147.066796
21
239.184219
0
LINE
8
Layer 1
10
133.001662
20
232.912263
11
133.001662
21
232.309715
0
LINE
8
Layer 1
10
133.001662
20
232.309715
11
133.719793
21
232.309715
0
LINE
8
Layer 1
10
133.719793
20
232.309715
11
133.719793
21
232.038758
0
LINE
8
Layer 1
10
133.719793
20
232.038758
11
133.001662
21
232.038758
0
LINE
8
Layer 1
10
133.001662
20
232.038758
11
133.001662
21
230.886716
0
LINE
8
Layer 1
10
133.001662
20
230.886716
11
133.071770
21
230.553231
0
LINE
8
Layer 1
10
133.071770
20
230.553231
11
133.361675
21
230.479335
0
LINE
8
Layer 1
10
133.361675
20
230.479335
11
133.719793
21
230.479335
0
LINE
8
Layer 1
10
133.719793
20
230.479335
11
133.719793
21
230.187535
0
LINE
8
Layer 1
10
133.719793
20
230.187535
11
133.361675
21
230.187535
0
LINE
8
Layer 1
10
133.361675
20
230.187535
11
132.804602
21
230.337225
0
LINE
8
Layer 1
10
132.804602
20
230.337225
11
132.651123
21
230.886716
0
LINE
8
Layer 1
10
132.651123
20
230.886716
11
132.651123
21
232.038758
0
LINE
8
Layer 1
10
132.651123
20
232.038758
11
132.395325
21
232.038758
0
LINE
8
Layer 1
10
132.395325
20
232.038758
11
132.395325
21
232.309715
0
LINE
8
Layer 1
10
132.395325
20
232.309715
11
132.651123
21
232.309715
0
LINE
8
Layer 1
10
132.651123
20
232.309715
11
132.651123
21
232.912263
0
LINE
8
Layer 1
10
132.651123
20
232.912263
11
133.001662
21
232.912263
0
LINE
8
Layer 1
10
135.993558
20
231.335785
11
135.993558
21
231.165254
0
LINE
8
Layer 1
10
135.993558
20
231.165254
11
134.390554
21
231.165254
0
LINE
8
Layer 1
10
134.390554
20
231.165254
11
134.606562
21
230.615760
0
LINE
8
Layer 1
10
134.606562
20
230.615760
11
135.148475
21
230.428176
0
LINE
8
Layer 1
10
135.148475
20
230.428176
11
135.536911
21
230.477438
0
LINE
8
Layer 1
10
135.536911
20
230.477438
11
135.912082
21
230.625234
0
LINE
8
Layer 1
10
135.912082
20
230.625234
11
135.912082
21
230.295537
0
LINE
8
Layer 1
10
135.912082
20
230.295537
11
135.527436
21
230.174271
0
LINE
8
Layer 1
10
135.527436
20
230.174271
11
135.127633
21
230.132586
0
LINE
8
Layer 1
10
135.127633
20
230.132586
11
134.672406
21
230.206483
0
LINE
8
Layer 1
10
134.672406
20
230.206483
11
134.322341
21
230.428176
0
LINE
8
Layer 1
10
134.322341
20
230.428176
11
134.100649
21
230.775872
0
LINE
8
Layer 1
10
134.100649
20
230.775872
11
134.026751
21
231.227782
0
LINE
8
Layer 1
10
134.026751
20
231.227782
11
134.096859
21
231.694851
0
LINE
8
Layer 1
10
134.096859
20
231.694851
11
134.307182
21
232.053916
0
LINE
8
Layer 1
10
134.307182
20
232.053916
11
134.638299
21
232.284135
0
LINE
8
Layer 1
10
134.638299
20
232.284135
11
135.066999
21
232.360875
0
LINE
8
Layer 1
10
135.066999
20
232.360875
11
135.450223
21
232.291714
0
LINE
8
Layer 1
10
135.450223
20
232.291714
11
135.743444
21
232.084232
0
LINE
8
Layer 1
10
135.743444
20
232.084232
11
135.931030
21
231.759748
0
LINE
8
Layer 1
10
135.931030
20
231.759748
11
135.993558
21
231.335785
0
LINE
8
Layer 1
10
135.993558
20
231.335785
11
135.993558
21
231.335785
0
LINE
8
Layer 1
10
135.644914
20
231.438105
11
135.483856
21
231.894754
0
LINE
8
Layer 1
10
135.483856
20
231.894754
11
135.070789
21
232.065286
0
LINE
8
Layer 1
10
135.070789
20
232.065286
11
134.602772
21
231.900437
0
LINE
8
Layer 1
10
134.602772
20
231.900437
11
134.401922
21
231.436210
0
LINE
8
Layer 1
10
134.401922
20
231.436210
11
135.644914
21
231.438105
0
LINE
8
Layer 1
10
138.261639
20
232.309715
11
137.494244
21
231.277048
0
LINE
8
Layer 1
10
137.494244
20
231.277048
11
138.301430
21
230.187535
0
LINE
8
Layer 1
10
138.301430
20
230.187535
11
137.890258
21
230.187535
0
LINE
8
Layer 1
10
137.890258
20
230.187535
11
137.272551
21
231.021249
0
LINE
8
Layer 1
10
137.272551
20
231.021249
11
136.654845
21
230.187535
0
LINE
8
Layer 1
10
136.654845
20
230.187535
11
136.243673
21
230.187535
0
LINE
8
Layer 1
10
136.243673
20
230.187535
11
137.067913
21
231.297889
0
LINE
8
Layer 1
10
137.067913
20
231.297889
11
136.313780
21
232.309715
0
LINE
8
Layer 1
10
136.313780
20
232.309715
11
136.724953
21
232.309715
0
LINE
8
Layer 1
10
136.724953
20
232.309715
11
137.287710
21
231.553688
0
LINE
8
Layer 1
10
137.287710
20
231.553688
11
137.850467
21
232.309715
0
LINE
8
Layer 1
10
137.850467
20
232.309715
11
138.261639
21
232.309715
0
LINE
8
Layer 1
10
139.138934
20
232.912263
11
139.138934
21
232.309715
0
LINE
8
Layer 1
10
139.138934
20
232.309715
11
139.857065
21
232.309715
0
LINE
8
Layer 1
10
139.857065
20
232.309715
11
139.857065
21
232.038758
0
LINE
8
Layer 1
10
139.857065
20
232.038758
11
139.138934
21
232.038758
0
LINE
8
Layer 1
10
139.138934
20
232.038758
11
139.138934
21
230.886716
0
LINE
8
Layer 1
10
139.138934
20
230.886716
11
139.209041
21
230.553231
0
LINE
8
Layer 1
10
139.209041
20
230.553231
11
139.498946
21
230.479335
0
LINE
8
Layer 1
10
139.498946
20
230.479335
11
139.857065
21
230.479335
0
LINE
8
Layer 1
10
139.857065
20
230.479335
11
139.857065
21
230.187535
0
LINE
8
Layer 1
10
139.857065
20
230.187535
11
139.498946
21
230.187535
0
LINE
8
Layer 1
10
139.498946
20
230.187535
11
138.941874
21
230.337225
0
LINE
8
Layer 1
10
138.941874
20
230.337225
11
138.788395
21
230.886716
0
LINE
8
Layer 1
10
138.788395
20
230.886716
11
138.788395
21
232.038758
0
LINE
8
Layer 1
10
138.788395
20
232.038758
11
138.532596
21
232.038758
0
LINE
8
Layer 1
10
138.532596
20
232.038758
11
138.532596
21
232.309715
0
LINE
8
Layer 1
10
138.532596
20
232.309715
11
138.788395
21
232.309715
0
LINE
8
Layer 1
10
138.788395
20
232.309715
11
138.788395
21
232.912263
0
LINE
8
Layer 1
10
138.788395
20
232.912263
11
139.138934
21
232.912263
0
LINE
8
Slide1
10
26.458300
20
211.666400
11
52.916600
21
211.666400
0
LINE
8
Slide1
10
52.916600
20
211.666400
11
52.916600
21
185.208100
0
LINE
8
Slide1
10
52.916600
20
185.208100
11
26.458300
21
185.208100
0
LINE
8
Slide1
10
26.458300
20
185.208100
11
26.458300
21
211.666400
0
LINE
8
Slide1
10
79.374900
20
211.666400
11
132.291500
21
211.666400
0
LINE
8
Slide1
10
132.291500
20
211.666400
11
132.291500
21
185.208100
0
LINE
8
Slide1
10
132.291500
20
185.208100
11
79.374900
21
185.208100
0
LINE
8
Slide1
10
79.374900
20
185.208100
11
79.374900
21
211.666400
0
LINE
8
Slide1
10
170.641014
20
211.666400
11
199.775186
21
211.666400
0
LINE
8
Slide1
10
199.775186
20
211.666400
11
202.105880
21
211.466549
0
LINE
8
Slide1
10
202.105880
20
211.466549
11
204.325757
21
210.881924
0
LINE
8
Slide1
10
204.325757
20
210.881924
11
206.372438
21
209.934918
0
LINE
8
Slide1
10
206.372438
20
209.934918
11
208.183544
21
208.647925
0
LINE
8
Slide1
10
208.183544
20
208.647925
11
209.668536
21
207.078299
0
LINE
8
Slide1
10
209.668536
20
207.078299
11
210.761235
21
205.304509
0
LINE
8
Slide1
10
210.761235
20
205.304509
11
211.435802
21
203.380616
0
LINE
8
Slide1
10
211.435802
20
203.380616
11
211.666400
21
201.360681
0
LINE
8
Slide1
10
211.666400
20
201.360681
11
211.666400
21
195.513819
0
LINE
8
Slide1
10
211.666400
20
195.513819
11
211.435802
21
193.493884
0
LINE
8
Slide1
10
211.435802
20
193.493884
11
210.761235
21
191.569991
0
LINE
8
Slide1
10
210.761235
20
191.569991
11
209.668536
21
189.796201
0
LINE
8
Slide1
10
209.668536
20
189.796201
11
208.183544
21
188.226575
0
LINE
8
Slide1
10
208.183544
20
188.226575
11
206.372438
21
186.939582
0
LINE
8
Slide1
10
206.372438
20
186.939582
11
204.325757
21
185.992576
0
LINE
8
Slide1
10
204.325757
20
185.992576
11
202.105880
21
185.407951
0
LINE
8
Slide1
10
202.105880
20
185.407951
11
199.775186
21
185.208100
0
LINE
8
Slide1
10
199.775186
20
185.208100
11
170.641014
21
185.208100
0
LINE
8
Slide1
10
170.641014
20
185.208100
11
168.310320
21
185.407951
0
LINE
8
Slide1
10
168.310320
20
185.407951
11
166.090443
21
185.992576
0
LINE
8
Slide1
10
166.090443
20
185.992576
11
164.043762
21
186.939582
0
LINE
8
Slide1
10
164.043762
20
186.939582
11
162.232656
21
188.226575
0
LINE
8
Slide1
10
162.232656
20
188.226575
11
160.747664
21
189.796201
0
LINE
8
Slide1
10
160.747664
20
189.796201
11
159.654965
21
191.569991
0
LINE
8
Slide1
10
159.654965
20
191.569991
11
158.980398
21
193.493884
0
LINE
8
Slide1
10
158.980398
20
193.493884
11
158.749800
21
195.513819
0
LINE
8
Slide1
10
158.749800
20
195.513819
11
158.749800
21
201.360681
0
LINE
8
Slide1
10
158.749800
20
201.360681
11
158.980398
21
203.380616
0
LINE
8
Slide1
10
158.980398
20
203.380616
11
159.654965
21
205.304509
0
LINE
8
Slide1
10
159.654965
20
205.304509
11
160.747664
21
207.078299
0
LINE
8
Slide1
10
160.747664
20
207.078299
11
162.232656
21
208.647925
0
LINE
8
Slide1
10
162.232656
20
208.647925
11
164.043762
21
209.934918
0
LINE
8
Slide1
10
164.043762
20
209.934918
11
166.090443
21
210.881924
0
LINE
8
Slide1
10
166.090443
20
210.881924
11
168.310320
21
211.466549
0
LINE
8
Slide1
10
168.310320
20
211.466549
11
170.641014
21
211.666400
0
LINE
8
Slide1
10
170.641014
20
211.666400
11
170.641014
21
211.666400
 0 
ENDSEC
 0 
EOF